G04 #@! TF.GenerationSoftware,KiCad,Pcbnew,(5.0.2)-1*
G04 #@! TF.CreationDate,2019-02-14T12:18:38+05:30*
G04 #@! TF.ProjectId,hackaBLE,6861636b-6142-44c4-952e-6b696361645f,rev?*
G04 #@! TF.SameCoordinates,Original*
G04 #@! TF.FileFunction,Copper,L1,Top*
G04 #@! TF.FilePolarity,Positive*
%FSLAX46Y46*%
G04 Gerber Fmt 4.6, Leading zero omitted, Abs format (unit mm)*
G04 Created by KiCad (PCBNEW (5.0.2)-1) date 2/14/2019 12:18:38 PM*
%MOMM*%
%LPD*%
G01*
G04 APERTURE LIST*
G04 #@! TA.AperFunction,BGAPad,CuDef*
%ADD10C,0.750000*%
G04 #@! TD*
G04 #@! TA.AperFunction,SMDPad,CuDef*
%ADD11R,1.000000X0.400000*%
G04 #@! TD*
G04 #@! TA.AperFunction,SMDPad,CuDef*
%ADD12R,0.400000X1.100000*%
G04 #@! TD*
G04 #@! TA.AperFunction,SMDPad,CuDef*
%ADD13R,0.400000X1.400000*%
G04 #@! TD*
G04 #@! TA.AperFunction,SMDPad,CuDef*
%ADD14R,1.400000X0.600000*%
G04 #@! TD*
G04 #@! TA.AperFunction,SMDPad,CuDef*
%ADD15R,1.400000X0.400000*%
G04 #@! TD*
G04 #@! TA.AperFunction,SMDPad,CuDef*
%ADD16R,1.900000X1.100000*%
G04 #@! TD*
G04 #@! TA.AperFunction,SMDPad,CuDef*
%ADD17R,0.800000X0.750000*%
G04 #@! TD*
G04 #@! TA.AperFunction,SMDPad,CuDef*
%ADD18R,0.750000X0.800000*%
G04 #@! TD*
G04 #@! TA.AperFunction,SMDPad,CuDef*
%ADD19R,0.599440X1.198880*%
G04 #@! TD*
G04 #@! TA.AperFunction,SMDPad,CuDef*
%ADD20R,0.900000X0.500000*%
G04 #@! TD*
G04 #@! TA.AperFunction,SMDPad,CuDef*
%ADD21R,0.500000X0.900000*%
G04 #@! TD*
G04 #@! TA.AperFunction,SMDPad,CuDef*
%ADD22R,0.550000X1.200000*%
G04 #@! TD*
G04 #@! TA.AperFunction,ComponentPad*
%ADD23C,1.700000*%
G04 #@! TD*
G04 #@! TA.AperFunction,ComponentPad*
%ADD24O,1.700000X1.700000*%
G04 #@! TD*
G04 #@! TA.AperFunction,SMDPad,CuDef*
%ADD25R,0.400000X0.600000*%
G04 #@! TD*
G04 #@! TA.AperFunction,SMDPad,CuDef*
%ADD26R,1.050000X0.650000*%
G04 #@! TD*
G04 #@! TA.AperFunction,SMDPad,CuDef*
%ADD27R,0.900000X0.800000*%
G04 #@! TD*
G04 #@! TA.AperFunction,SMDPad,CuDef*
%ADD28R,1.200000X0.900000*%
G04 #@! TD*
G04 #@! TA.AperFunction,BGAPad,CuDef*
%ADD29C,0.800000*%
G04 #@! TD*
G04 #@! TA.AperFunction,ViaPad*
%ADD30C,0.600000*%
G04 #@! TD*
G04 #@! TA.AperFunction,Conductor*
%ADD31C,0.400000*%
G04 #@! TD*
G04 #@! TA.AperFunction,Conductor*
%ADD32C,0.200000*%
G04 #@! TD*
G04 #@! TA.AperFunction,Conductor*
%ADD33C,0.152000*%
G04 #@! TD*
G04 #@! TA.AperFunction,Conductor*
%ADD34C,0.254000*%
G04 #@! TD*
G04 APERTURE END LIST*
D10*
G04 #@! TO.P,REF\002A\002A,~*
G04 #@! TO.N,N/C*
X126746000Y-91821000D03*
G04 #@! TD*
G04 #@! TO.P,REF\002A\002A,~*
G04 #@! TO.N,N/C*
X141732000Y-91821000D03*
G04 #@! TD*
D11*
G04 #@! TO.P,U2,38*
G04 #@! TO.N,P0.24*
X132399000Y-96517000D03*
G04 #@! TO.P,U2,39*
G04 #@! TO.N,GREEN*
X132399000Y-97917000D03*
G04 #@! TO.P,U2,40*
G04 #@! TO.N,P0.16*
X132399000Y-99317000D03*
D12*
G04 #@! TO.P,U2,14*
G04 #@! TO.N,GND*
X130389000Y-103717000D03*
D13*
G04 #@! TO.P,U2,15*
G04 #@! TO.N,VDD*
X131089000Y-103867000D03*
G04 #@! TO.P,U2,16*
G04 #@! TO.N,P0.08*
X131789000Y-103867000D03*
G04 #@! TO.P,U2,17*
G04 #@! TO.N,P0.07*
X132489000Y-103867000D03*
G04 #@! TO.P,U2,18*
G04 #@! TO.N,P0.06*
X133189000Y-103867000D03*
G04 #@! TO.P,U2,19*
G04 #@! TO.N,P0.05*
X133889000Y-103867000D03*
G04 #@! TO.P,U2,20*
G04 #@! TO.N,Net-(C3-Pad1)*
X134589000Y-103867000D03*
G04 #@! TO.P,U2,21*
G04 #@! TO.N,Net-(C4-Pad1)*
X135289000Y-103867000D03*
G04 #@! TO.P,U2,22*
G04 #@! TO.N,P0.04*
X135989000Y-103867000D03*
G04 #@! TO.P,U2,23*
G04 #@! TO.N,P0.03*
X136689000Y-103867000D03*
G04 #@! TO.P,U2,24*
G04 #@! TO.N,P0.02*
X137389000Y-103867000D03*
D14*
G04 #@! TO.P,U2,1*
G04 #@! TO.N,GND*
X130239000Y-93967000D03*
G04 #@! TO.P,U2,37*
X138239000Y-93967000D03*
D15*
G04 #@! TO.P,U2,2*
G04 #@! TO.N,P0.23*
X130239000Y-94767000D03*
G04 #@! TO.P,U2,36*
G04 #@! TO.N,RED*
X138239000Y-95467000D03*
G04 #@! TO.P,U2,12*
G04 #@! TO.N,NFC2*
X130239000Y-101767000D03*
G04 #@! TO.P,U2,13*
G04 #@! TO.N,NFC1*
X130239000Y-102467000D03*
G04 #@! TO.P,U2,11*
G04 #@! TO.N,P0.12*
X130239000Y-101067000D03*
G04 #@! TO.P,U2,10*
G04 #@! TO.N,P0.13*
X130239000Y-100367000D03*
G04 #@! TO.P,U2,9*
G04 #@! TO.N,P0.15*
X130239000Y-99667000D03*
G04 #@! TO.P,U2,3*
G04 #@! TO.N,P0.22*
X130239000Y-95467000D03*
G04 #@! TO.P,U2,4*
G04 #@! TO.N,SWDCLK*
X130239000Y-96167000D03*
G04 #@! TO.P,U2,5*
G04 #@! TO.N,SWDIO*
X130239000Y-96867000D03*
G04 #@! TO.P,U2,6*
G04 #@! TO.N,RESET*
X130239000Y-97567000D03*
G04 #@! TO.P,U2,7*
G04 #@! TO.N,P0.18*
X130239000Y-98267000D03*
G04 #@! TO.P,U2,8*
G04 #@! TO.N,BLUE*
X130239000Y-98967000D03*
G04 #@! TO.P,U2,35*
G04 #@! TO.N,P0.26*
X138239000Y-96167000D03*
G04 #@! TO.P,U2,34*
G04 #@! TO.N,P0.11*
X138239000Y-96867000D03*
G04 #@! TO.P,U2,33*
G04 #@! TO.N,P0.28*
X138239000Y-97567000D03*
G04 #@! TO.P,U2,32*
G04 #@! TO.N,P0.29*
X138239000Y-98267000D03*
G04 #@! TO.P,U2,31*
G04 #@! TO.N,P0.30*
X138239000Y-98967000D03*
G04 #@! TO.P,U2,30*
G04 #@! TO.N,P0.25*
X138239000Y-99667000D03*
G04 #@! TO.P,U2,29*
G04 #@! TO.N,P0.27*
X138239000Y-100367000D03*
G04 #@! TO.P,U2,28*
G04 #@! TO.N,P0.31*
X138239000Y-101067000D03*
G04 #@! TO.P,U2,27*
G04 #@! TO.N,Net-(C8-Pad1)*
X138239000Y-101767000D03*
G04 #@! TO.P,U2,26*
G04 #@! TO.N,Net-(L1-Pad2)*
X138239000Y-102467000D03*
D12*
G04 #@! TO.P,U2,25*
G04 #@! TO.N,GND*
X138089000Y-103717000D03*
D11*
G04 #@! TO.P,U2,41*
G04 #@! TO.N,P0.14*
X132399000Y-100717000D03*
G04 #@! TD*
D16*
G04 #@! TO.P,Y1,2*
G04 #@! TO.N,Net-(C4-Pad1)*
X137000000Y-106550000D03*
G04 #@! TO.P,Y1,1*
G04 #@! TO.N,Net-(C3-Pad1)*
X137000000Y-109050000D03*
G04 #@! TD*
D17*
G04 #@! TO.P,C1,1*
G04 #@! TO.N,GND*
X139250000Y-109000000D03*
G04 #@! TO.P,C1,2*
G04 #@! TO.N,Vin*
X140750000Y-109000000D03*
G04 #@! TD*
D18*
G04 #@! TO.P,C2,1*
G04 #@! TO.N,GND*
X137000000Y-111250000D03*
G04 #@! TO.P,C2,2*
G04 #@! TO.N,Net-(C2-Pad2)*
X137000000Y-112750000D03*
G04 #@! TD*
D17*
G04 #@! TO.P,C3,1*
G04 #@! TO.N,Net-(C3-Pad1)*
X139250000Y-107400000D03*
G04 #@! TO.P,C3,2*
G04 #@! TO.N,GND*
X140750000Y-107400000D03*
G04 #@! TD*
G04 #@! TO.P,C4,1*
G04 #@! TO.N,Net-(C4-Pad1)*
X139250000Y-105800000D03*
G04 #@! TO.P,C4,2*
G04 #@! TO.N,GND*
X140750000Y-105800000D03*
G04 #@! TD*
G04 #@! TO.P,C5,1*
G04 #@! TO.N,NFC1*
X127650000Y-110000000D03*
G04 #@! TO.P,C5,2*
G04 #@! TO.N,GND*
X129150000Y-110000000D03*
G04 #@! TD*
G04 #@! TO.P,C6,1*
G04 #@! TO.N,GND*
X129150000Y-108200000D03*
G04 #@! TO.P,C6,2*
G04 #@! TO.N,NFC2*
X127650000Y-108200000D03*
G04 #@! TD*
G04 #@! TO.P,C7,1*
G04 #@! TO.N,GND*
X127650000Y-106400000D03*
G04 #@! TO.P,C7,2*
G04 #@! TO.N,VDD*
X129150000Y-106400000D03*
G04 #@! TD*
G04 #@! TO.P,C8,1*
G04 #@! TO.N,Net-(C8-Pad1)*
X139966000Y-99631500D03*
G04 #@! TO.P,C8,2*
G04 #@! TO.N,GND*
X141466000Y-99631500D03*
G04 #@! TD*
D19*
G04 #@! TO.P,L1,2*
G04 #@! TO.N,Net-(L1-Pad2)*
X140014960Y-102997000D03*
G04 #@! TO.P,L1,1*
G04 #@! TO.N,Net-(L1-Pad1)*
X141417040Y-102997000D03*
G04 #@! TD*
D20*
G04 #@! TO.P,R1,1*
G04 #@! TO.N,VDD*
X128400000Y-113750000D03*
G04 #@! TO.P,R1,2*
G04 #@! TO.N,RESET*
X128400000Y-112250000D03*
G04 #@! TD*
D21*
G04 #@! TO.P,R2,1*
G04 #@! TO.N,Net-(D1-Pad2)*
X132350000Y-106400000D03*
G04 #@! TO.P,R2,2*
G04 #@! TO.N,RED*
X130850000Y-106400000D03*
G04 #@! TD*
G04 #@! TO.P,R3,1*
G04 #@! TO.N,Net-(D1-Pad1)*
X132350000Y-108200000D03*
G04 #@! TO.P,R3,2*
G04 #@! TO.N,GREEN*
X130850000Y-108200000D03*
G04 #@! TD*
G04 #@! TO.P,R4,1*
G04 #@! TO.N,Net-(D1-Pad4)*
X132322000Y-110000000D03*
G04 #@! TO.P,R4,2*
G04 #@! TO.N,BLUE*
X130822000Y-110000000D03*
G04 #@! TD*
D22*
G04 #@! TO.P,D1,1*
G04 #@! TO.N,Net-(D1-Pad1)*
X134850000Y-107200000D03*
G04 #@! TO.P,D1,2*
G04 #@! TO.N,Net-(D1-Pad2)*
X133950000Y-107200000D03*
G04 #@! TO.P,D1,3*
G04 #@! TO.N,VDD*
X133950000Y-109200000D03*
G04 #@! TO.P,D1,4*
G04 #@! TO.N,Net-(D1-Pad4)*
X134850000Y-109200000D03*
G04 #@! TD*
D23*
G04 #@! TO.P,J1,1*
G04 #@! TO.N,Vin*
X143129000Y-113538000D03*
D24*
G04 #@! TO.P,J1,2*
G04 #@! TO.N,GND*
X143129000Y-116078000D03*
G04 #@! TD*
D23*
G04 #@! TO.P,J2,1*
G04 #@! TO.N,NFC1*
X125349000Y-116078000D03*
D24*
G04 #@! TO.P,J2,2*
G04 #@! TO.N,NFC2*
X125349000Y-113538000D03*
G04 #@! TD*
D23*
G04 #@! TO.P,J3,1*
G04 #@! TO.N,SWDCLK*
X130429000Y-118618000D03*
D24*
G04 #@! TO.P,J3,2*
G04 #@! TO.N,SWDIO*
X132969000Y-118618000D03*
G04 #@! TO.P,J3,3*
G04 #@! TO.N,GND*
X135509000Y-118618000D03*
G04 #@! TO.P,J3,4*
G04 #@! TO.N,VDD*
X138049000Y-118618000D03*
G04 #@! TD*
G04 #@! TO.P,J4,7*
G04 #@! TO.N,P0.14*
X125349000Y-95758000D03*
D23*
G04 #@! TO.P,J4,1*
G04 #@! TO.N,P0.06*
X125349000Y-110998000D03*
D24*
G04 #@! TO.P,J4,2*
G04 #@! TO.N,P0.07*
X125349000Y-108458000D03*
G04 #@! TO.P,J4,3*
G04 #@! TO.N,P0.08*
X125349000Y-105918000D03*
G04 #@! TO.P,J4,4*
G04 #@! TO.N,P0.11*
X125349000Y-103378000D03*
G04 #@! TO.P,J4,5*
G04 #@! TO.N,P0.12*
X125349000Y-100838000D03*
G04 #@! TO.P,J4,6*
G04 #@! TO.N,P0.13*
X125349000Y-98298000D03*
G04 #@! TD*
G04 #@! TO.P,J6,7*
G04 #@! TO.N,P0.27*
X143129000Y-95758000D03*
D23*
G04 #@! TO.P,J6,1*
G04 #@! TO.N,VDD*
X143129000Y-110998000D03*
D24*
G04 #@! TO.P,J6,2*
G04 #@! TO.N,P0.03*
X143129000Y-108458000D03*
G04 #@! TO.P,J6,3*
G04 #@! TO.N,P0.04*
X143129000Y-105918000D03*
G04 #@! TO.P,J6,4*
G04 #@! TO.N,P0.05*
X143129000Y-103378000D03*
G04 #@! TO.P,J6,5*
G04 #@! TO.N,P0.25*
X143129000Y-100838000D03*
G04 #@! TO.P,J6,6*
G04 #@! TO.N,P0.26*
X143129000Y-98298000D03*
G04 #@! TD*
D23*
G04 #@! TO.P,J8,1*
G04 #@! TO.N,SWDCLK*
X130429000Y-116522500D03*
D24*
G04 #@! TO.P,J8,2*
G04 #@! TO.N,SWDIO*
X132969000Y-116522500D03*
G04 #@! TO.P,J8,3*
G04 #@! TO.N,GND*
X135509000Y-116522500D03*
G04 #@! TO.P,J8,4*
G04 #@! TO.N,VDD*
X138049000Y-116522500D03*
G04 #@! TD*
D25*
G04 #@! TO.P,L2,1*
G04 #@! TO.N,Net-(C8-Pad1)*
X140350000Y-101200000D03*
G04 #@! TO.P,L2,2*
G04 #@! TO.N,Net-(L1-Pad1)*
X141250000Y-101200000D03*
G04 #@! TD*
D26*
G04 #@! TO.P,SW1,1*
G04 #@! TO.N,GND*
X130325000Y-111925000D03*
G04 #@! TO.P,SW1,3*
G04 #@! TO.N,N/C*
X134475000Y-111925000D03*
G04 #@! TO.P,SW1,2*
G04 #@! TO.N,RESET*
X130325000Y-114075000D03*
G04 #@! TO.P,SW1,4*
G04 #@! TO.N,N/C*
X134475000Y-114075000D03*
G04 #@! TD*
D27*
G04 #@! TO.P,U1,1*
G04 #@! TO.N,GND*
X138800000Y-110850000D03*
G04 #@! TO.P,U1,2*
G04 #@! TO.N,Net-(C2-Pad2)*
X138800000Y-112750000D03*
G04 #@! TO.P,U1,3*
G04 #@! TO.N,Vin*
X140800000Y-111800000D03*
G04 #@! TD*
D10*
G04 #@! TO.P,REF\002A\002A,~*
G04 #@! TO.N,N/C*
X126746000Y-117475000D03*
G04 #@! TD*
D28*
G04 #@! TO.P,D2,2*
G04 #@! TO.N,Net-(C2-Pad2)*
X140600000Y-114350000D03*
G04 #@! TO.P,D2,1*
G04 #@! TO.N,VDD*
X140600000Y-117650000D03*
G04 #@! TD*
D29*
G04 #@! TO.P,J9,1*
G04 #@! TO.N,P0.02*
X141600000Y-104600000D03*
G04 #@! TD*
D30*
G04 #@! TO.N,GND*
X139400000Y-104400000D03*
X136400000Y-94000000D03*
X135600000Y-94000000D03*
X140000000Y-94000000D03*
X128600000Y-94000000D03*
X129200000Y-104200000D03*
X141400000Y-100200000D03*
X142000000Y-101800000D03*
X140702220Y-101976268D03*
X127776010Y-104991544D03*
X131318000Y-93853000D03*
X129413000Y-111125000D03*
X127889000Y-117094000D03*
X141986000Y-96774000D03*
X135890000Y-113538000D03*
X141859000Y-107315000D03*
X135763000Y-110617000D03*
G04 #@! TO.N,VDD*
X133800000Y-110400000D03*
G04 #@! TO.N,SWDIO*
X134392038Y-95799318D03*
G04 #@! TO.N,P0.03*
X137668000Y-105410000D03*
G04 #@! TO.N,P0.04*
X136800000Y-102714998D03*
G04 #@! TO.N,P0.05*
X136199084Y-102194700D03*
G04 #@! TO.N,P0.06*
X132839969Y-101866647D03*
G04 #@! TO.N,P0.07*
X132172979Y-102213988D03*
G04 #@! TO.N,P0.08*
X131435441Y-102360816D03*
G04 #@! TO.N,P0.11*
X131600000Y-101400000D03*
G04 #@! TO.N,P0.14*
X131600000Y-100600000D03*
G04 #@! TO.N,P0.15*
X128905000Y-99695000D03*
G04 #@! TO.N,P0.16*
X131572000Y-99568000D03*
G04 #@! TO.N,P0.18*
X127000000Y-96520000D03*
G04 #@! TO.N,P0.22*
X132103153Y-94967297D03*
G04 #@! TO.N,P0.23*
X132588000Y-94361000D03*
G04 #@! TO.N,P0.24*
X136000000Y-95600000D03*
G04 #@! TO.N,P0.25*
X137000000Y-99800000D03*
G04 #@! TO.N,P0.27*
X136432021Y-100400000D03*
G04 #@! TO.N,P0.28*
X136890507Y-97528010D03*
G04 #@! TO.N,P0.29*
X136271000Y-98298000D03*
G04 #@! TO.N,P0.30*
X136596593Y-99138990D03*
G04 #@! TO.N,P0.31*
X137003917Y-100967979D03*
G04 #@! TO.N,RESET*
X129200000Y-112200000D03*
X133477000Y-97155000D03*
G04 #@! TO.N,RED*
X134200000Y-105600000D03*
X134271254Y-99441000D03*
G04 #@! TO.N,GREEN*
X130200000Y-109000000D03*
X131445000Y-98044000D03*
G04 #@! TO.N,BLUE*
X133477000Y-98679000D03*
X130400000Y-111000000D03*
G04 #@! TO.N,SWDCLK*
X132969000Y-95123000D03*
G04 #@! TD*
D31*
G04 #@! TO.N,GND*
X138089000Y-103717000D02*
X138717000Y-103717000D01*
X138717000Y-103717000D02*
X139400000Y-104400000D01*
X138239000Y-93967000D02*
X136433000Y-93967000D01*
X136433000Y-93967000D02*
X136400000Y-94000000D01*
X138239000Y-93967000D02*
X139967000Y-93967000D01*
X139967000Y-93967000D02*
X140000000Y-94000000D01*
X130239000Y-93967000D02*
X128633000Y-93967000D01*
X128633000Y-93967000D02*
X128600000Y-94000000D01*
X130389000Y-103717000D02*
X129683000Y-103717000D01*
X129683000Y-103717000D02*
X129200000Y-104200000D01*
X141466000Y-99631500D02*
X141466000Y-100134000D01*
X141466000Y-100134000D02*
X141400000Y-100200000D01*
X141850001Y-100650001D02*
X141850001Y-101650001D01*
X141400000Y-100200000D02*
X141850001Y-100650001D01*
X141850001Y-101650001D02*
X142000000Y-101800000D01*
X139400000Y-104400000D02*
X140400000Y-104400000D01*
D32*
X139400000Y-104400000D02*
X140200000Y-104400000D01*
D31*
X127650000Y-106400000D02*
X127650000Y-105117554D01*
X127650000Y-105117554D02*
X127776010Y-104991544D01*
X130239000Y-93967000D02*
X131204000Y-93967000D01*
X131204000Y-93967000D02*
X131318000Y-93853000D01*
D32*
X140702220Y-104097780D02*
X140400000Y-104400000D01*
X140702220Y-103505000D02*
X140702220Y-104097780D01*
X140702220Y-103897780D02*
X140702220Y-103505000D01*
X140702220Y-103505000D02*
X140702220Y-101976268D01*
D31*
X129150000Y-110000000D02*
X129150000Y-110862000D01*
X129150000Y-110862000D02*
X129413000Y-111125000D01*
X130213000Y-111925000D02*
X129413000Y-111125000D01*
X130325000Y-111925000D02*
X130213000Y-111925000D01*
X138400000Y-111250000D02*
X138800000Y-110850000D01*
X137000000Y-111250000D02*
X138400000Y-111250000D01*
X142323499Y-115272499D02*
X142653990Y-115602990D01*
X138027497Y-115272499D02*
X142323499Y-115272499D01*
X136224999Y-113470001D02*
X138027497Y-115272499D01*
X136224999Y-112050001D02*
X136224999Y-113470001D01*
X137000000Y-111275000D02*
X136224999Y-112050001D01*
X137000000Y-111250000D02*
X137000000Y-111275000D01*
X138800000Y-110225000D02*
X138800000Y-110363000D01*
X139250000Y-109775000D02*
X138800000Y-110225000D01*
X139250000Y-109000000D02*
X139250000Y-109775000D01*
X138800000Y-110850000D02*
X138800000Y-110363000D01*
X140750000Y-107400000D02*
X141774000Y-107400000D01*
X141774000Y-107400000D02*
X141859000Y-107315000D01*
X137000000Y-111250000D02*
X136396000Y-111250000D01*
X136396000Y-111250000D02*
X135763000Y-110617000D01*
G04 #@! TO.N,Vin*
X141738000Y-113538000D02*
X142653990Y-113538000D01*
X140800000Y-112600000D02*
X141738000Y-113538000D01*
X140800000Y-111800000D02*
X140800000Y-112600000D01*
X140750000Y-111750000D02*
X140800000Y-111800000D01*
X140750000Y-109000000D02*
X140750000Y-111750000D01*
G04 #@! TO.N,VDD*
X128400000Y-114400000D02*
X129000000Y-115000000D01*
X128400000Y-113750000D02*
X128400000Y-114400000D01*
X136526500Y-115000000D02*
X138049000Y-116522500D01*
X129000000Y-115000000D02*
X136526500Y-115000000D01*
X131089000Y-104461000D02*
X131089000Y-103867000D01*
X130800000Y-104750000D02*
X129150000Y-106400000D01*
X130800000Y-104750000D02*
X131089000Y-104461000D01*
X133950000Y-109200000D02*
X133950000Y-110250000D01*
X133950000Y-110250000D02*
X133800000Y-110400000D01*
X129175000Y-106400000D02*
X129150000Y-106400000D01*
X130124999Y-107349999D02*
X129175000Y-106400000D01*
X131349999Y-107349999D02*
X130124999Y-107349999D01*
X133275000Y-109200000D02*
X133224999Y-109149999D01*
X133224999Y-109149999D02*
X131879997Y-109149999D01*
X131879997Y-109149999D02*
X131600000Y-108870002D01*
X131600000Y-108870002D02*
X131600000Y-107600000D01*
X133950000Y-109200000D02*
X133275000Y-109200000D01*
X131600000Y-107600000D02*
X131349999Y-107349999D01*
X139472500Y-116522500D02*
X140600000Y-117650000D01*
X138049000Y-116522500D02*
X139472500Y-116522500D01*
D33*
G04 #@! TO.N,Net-(C3-Pad1)*
X134589000Y-104719000D02*
X134589000Y-103867000D01*
X135509000Y-105639000D02*
X134589000Y-104719000D01*
X135509000Y-107959000D02*
X135509000Y-105639000D01*
X137000000Y-109050000D02*
X136600000Y-109050000D01*
X136600000Y-109050000D02*
X135509000Y-107959000D01*
X137000000Y-108348000D02*
X137000000Y-109050000D01*
X137948000Y-107400000D02*
X137000000Y-108348000D01*
X139250000Y-107400000D02*
X137948000Y-107400000D01*
G04 #@! TO.N,Net-(C4-Pad1)*
X135289000Y-103867000D02*
X135289000Y-104839000D01*
X135733000Y-105283000D02*
X137000000Y-106550000D01*
X135289000Y-104839000D02*
X135733000Y-105283000D01*
X139027000Y-106550000D02*
X138557000Y-106550000D01*
X139250000Y-106327000D02*
X139027000Y-106550000D01*
X139250000Y-105800000D02*
X139250000Y-106327000D01*
X137000000Y-106550000D02*
X138557000Y-106550000D01*
G04 #@! TO.N,NFC1*
X129387000Y-102467000D02*
X130239000Y-102467000D01*
X126973999Y-104880001D02*
X129387000Y-102467000D01*
X126973999Y-106995801D02*
X126973999Y-104880001D01*
X128200000Y-107400000D02*
X127378198Y-107400000D01*
X127378198Y-107400000D02*
X126973999Y-106995801D01*
X127650000Y-113777000D02*
X125652010Y-115774990D01*
X127650000Y-110000000D02*
X127650000Y-113777000D01*
X128202000Y-110000000D02*
X128400000Y-109802000D01*
X127650000Y-110000000D02*
X128202000Y-110000000D01*
X128400000Y-107600000D02*
X128200000Y-107400000D01*
X128400000Y-109802000D02*
X128400000Y-107600000D01*
G04 #@! TO.N,NFC2*
X126777000Y-112110000D02*
X126287000Y-112600000D01*
X126287000Y-112600000D02*
X125652010Y-113234990D01*
X129387000Y-101767000D02*
X130239000Y-101767000D01*
X126495989Y-104658011D02*
X129387000Y-101767000D01*
X126495989Y-107597989D02*
X126495989Y-104658011D01*
X127098000Y-108200000D02*
X126495989Y-107597989D01*
X127650000Y-108200000D02*
X127098000Y-108200000D01*
X126777000Y-108521000D02*
X127098000Y-108200000D01*
X126777000Y-110200000D02*
X126777000Y-108521000D01*
X126777000Y-110200000D02*
X126777000Y-112110000D01*
G04 #@! TO.N,Net-(C8-Pad1)*
X139966000Y-100364000D02*
X139966000Y-100200000D01*
X140350000Y-100748000D02*
X139966000Y-100364000D01*
X140350000Y-101200000D02*
X140350000Y-100748000D01*
X139966000Y-99631500D02*
X139966000Y-100200000D01*
X139431000Y-101767000D02*
X139400000Y-101767000D01*
X139998000Y-101200000D02*
X139431000Y-101767000D01*
X140350000Y-101200000D02*
X139998000Y-101200000D01*
X138239000Y-101767000D02*
X139400000Y-101767000D01*
G04 #@! TO.N,Net-(D1-Pad2)*
X133950000Y-106875000D02*
X133950000Y-107200000D01*
X133475000Y-106400000D02*
X133950000Y-106875000D01*
X132350000Y-106400000D02*
X133475000Y-106400000D01*
G04 #@! TO.N,Net-(D1-Pad4)*
X134850000Y-110350000D02*
X134850000Y-109200000D01*
X134200000Y-111000000D02*
X134850000Y-110350000D01*
X132720000Y-111000000D02*
X134200000Y-111000000D01*
X132322000Y-110602000D02*
X132720000Y-111000000D01*
X132322000Y-110000000D02*
X132322000Y-110602000D01*
G04 #@! TO.N,SWDIO*
X133967774Y-95799318D02*
X134392038Y-95799318D01*
X132006280Y-95799318D02*
X133967774Y-95799318D01*
X130938598Y-96867000D02*
X132006280Y-95799318D01*
X130239000Y-96867000D02*
X130938598Y-96867000D01*
G04 #@! TO.N,P0.02*
X137389000Y-103867000D02*
X137389000Y-104367000D01*
X137389000Y-104367000D02*
X138051000Y-105029000D01*
X141171000Y-105029000D02*
X141600000Y-104600000D01*
X138051000Y-105029000D02*
X141171000Y-105029000D01*
G04 #@! TO.N,P0.03*
X137380000Y-105410000D02*
X137668000Y-105410000D01*
X136689000Y-103867000D02*
X136689000Y-104719000D01*
X136689000Y-104719000D02*
X137380000Y-105410000D01*
G04 #@! TO.N,P0.04*
X136289002Y-102714998D02*
X136800000Y-102714998D01*
X135989000Y-103015000D02*
X136289002Y-102714998D01*
X135989000Y-103867000D02*
X135989000Y-103015000D01*
G04 #@! TO.N,P0.05*
X133889000Y-103867000D02*
X133889000Y-103015000D01*
X135774820Y-102194700D02*
X136199084Y-102194700D01*
X134709300Y-102194700D02*
X135774820Y-102194700D01*
X133889000Y-103015000D02*
X134709300Y-102194700D01*
G04 #@! TO.N,P0.06*
X133139968Y-102166646D02*
X132839969Y-101866647D01*
X133189000Y-103867000D02*
X133189000Y-102215678D01*
X133189000Y-102215678D02*
X133139968Y-102166646D01*
G04 #@! TO.N,P0.07*
X132489000Y-102530009D02*
X132472978Y-102513987D01*
X132472978Y-102513987D02*
X132172979Y-102213988D01*
X132489000Y-103867000D02*
X132489000Y-102530009D01*
G04 #@! TO.N,P0.08*
X131789000Y-103867000D02*
X131789000Y-102714375D01*
X131735440Y-102660815D02*
X131435441Y-102360816D01*
X131789000Y-102714375D02*
X131735440Y-102660815D01*
G04 #@! TO.N,P0.11*
X134247715Y-101337285D02*
X132800000Y-101337285D01*
X135000000Y-98400000D02*
X135000000Y-99441000D01*
X136533000Y-96867000D02*
X135000000Y-98400000D01*
X138239000Y-96867000D02*
X136533000Y-96867000D01*
X132800000Y-101337285D02*
X131662715Y-101337285D01*
X131662715Y-101337285D02*
X131600000Y-101400000D01*
X135000000Y-99441000D02*
X135000000Y-100585000D01*
X135000000Y-100585000D02*
X134247715Y-101337285D01*
G04 #@! TO.N,P0.12*
X130239000Y-101067000D02*
X125652010Y-101067000D01*
G04 #@! TO.N,P0.13*
X127418000Y-100367000D02*
X125652010Y-98601010D01*
X130239000Y-100367000D02*
X127418000Y-100367000D01*
G04 #@! TO.N,P0.14*
X132399000Y-100717000D02*
X131717000Y-100717000D01*
X131717000Y-100717000D02*
X131600000Y-100600000D01*
G04 #@! TO.N,P0.15*
X130239000Y-99667000D02*
X128933000Y-99667000D01*
X128933000Y-99667000D02*
X128905000Y-99695000D01*
G04 #@! TO.N,P0.16*
X132539493Y-99317000D02*
X132571991Y-99349498D01*
X132399000Y-99317000D02*
X132539493Y-99317000D01*
X132399000Y-99317000D02*
X131823000Y-99317000D01*
X131823000Y-99317000D02*
X131572000Y-99568000D01*
G04 #@! TO.N,P0.18*
X130239000Y-98267000D02*
X128747000Y-98267000D01*
X128747000Y-98267000D02*
X127000000Y-96520000D01*
G04 #@! TO.N,P0.22*
X131678889Y-94967297D02*
X132103153Y-94967297D01*
X130239000Y-95467000D02*
X131091000Y-95467000D01*
X131590703Y-94967297D02*
X131678889Y-94967297D01*
X131091000Y-95467000D02*
X131590703Y-94967297D01*
G04 #@! TO.N,P0.23*
X131699000Y-94361000D02*
X132588000Y-94361000D01*
X130239000Y-94767000D02*
X131293000Y-94767000D01*
X131293000Y-94767000D02*
X131699000Y-94361000D01*
G04 #@! TO.N,P0.24*
X135083000Y-96517000D02*
X135700001Y-95899999D01*
X135700001Y-95899999D02*
X136000000Y-95600000D01*
X132399000Y-96517000D02*
X135083000Y-96517000D01*
G04 #@! TO.N,P0.25*
X138239000Y-99667000D02*
X137133000Y-99667000D01*
X137133000Y-99667000D02*
X137000000Y-99800000D01*
G04 #@! TO.N,P0.26*
X141222000Y-98298000D02*
X142825990Y-98298000D01*
X139091000Y-96167000D02*
X141222000Y-98298000D01*
X138239000Y-96167000D02*
X139091000Y-96167000D01*
G04 #@! TO.N,P0.27*
X136465021Y-100367000D02*
X136432021Y-100400000D01*
X138239000Y-100367000D02*
X136465021Y-100367000D01*
G04 #@! TO.N,P0.28*
X138239000Y-97567000D02*
X136929497Y-97567000D01*
X136929497Y-97567000D02*
X136890507Y-97528010D01*
G04 #@! TO.N,P0.29*
X138239000Y-98267000D02*
X136302000Y-98267000D01*
X136302000Y-98267000D02*
X136271000Y-98298000D01*
G04 #@! TO.N,P0.30*
X138239000Y-98967000D02*
X136768583Y-98967000D01*
X136768583Y-98967000D02*
X136596593Y-99138990D01*
G04 #@! TO.N,P0.31*
X138239000Y-101067000D02*
X137102938Y-101067000D01*
X137102938Y-101067000D02*
X137003917Y-100967979D01*
G04 #@! TO.N,Net-(L1-Pad2)*
X139484960Y-102467000D02*
X140014960Y-102997000D01*
X138239000Y-102467000D02*
X139484960Y-102467000D01*
G04 #@! TO.N,Net-(L1-Pad1)*
X141278222Y-102106742D02*
X141278222Y-101680222D01*
X141278222Y-101680222D02*
X141250000Y-101652000D01*
X141417040Y-102245560D02*
X141278222Y-102106742D01*
X141417040Y-102997000D02*
X141417040Y-102245560D01*
X141250000Y-101652000D02*
X141250000Y-101200000D01*
G04 #@! TO.N,RESET*
X128450000Y-112200000D02*
X128400000Y-112250000D01*
X129200000Y-112200000D02*
X128450000Y-112200000D01*
X131184119Y-97567000D02*
X131445000Y-97306119D01*
X130239000Y-97567000D02*
X131184119Y-97567000D01*
X131445000Y-97306119D02*
X133557811Y-97306119D01*
X131091000Y-97567000D02*
X131503000Y-97155000D01*
X130239000Y-97567000D02*
X131091000Y-97567000D01*
X131503000Y-97155000D02*
X133477000Y-97155000D01*
X130325000Y-113307000D02*
X130325000Y-114075000D01*
X130048000Y-113030000D02*
X130325000Y-113307000D01*
X128654000Y-113030000D02*
X130048000Y-113030000D01*
X128400000Y-112250000D02*
X128400000Y-112776000D01*
X128400000Y-112776000D02*
X128654000Y-113030000D01*
G04 #@! TO.N,RED*
X131252000Y-106400000D02*
X130850000Y-106400000D01*
X132052000Y-105600000D02*
X131252000Y-106400000D01*
X134200000Y-105600000D02*
X132052000Y-105600000D01*
X134271254Y-98425000D02*
X134271254Y-99441000D01*
X137229254Y-95467000D02*
X134271254Y-98425000D01*
X138239000Y-95467000D02*
X137229254Y-95467000D01*
G04 #@! TO.N,GREEN*
X130200000Y-109000000D02*
X130200000Y-108850000D01*
X130200000Y-108850000D02*
X130850000Y-108200000D01*
X132399000Y-97917000D02*
X131572000Y-97917000D01*
X131572000Y-97917000D02*
X131445000Y-98044000D01*
G04 #@! TO.N,BLUE*
X131091000Y-98967000D02*
X131458000Y-98600000D01*
X130239000Y-98967000D02*
X131091000Y-98967000D01*
X131458000Y-98600000D02*
X132400000Y-98600000D01*
X132969000Y-98600000D02*
X133175000Y-98600000D01*
X132800000Y-98600000D02*
X132969000Y-98600000D01*
X132800000Y-98600000D02*
X132715000Y-98600000D01*
X132715000Y-98600000D02*
X132400000Y-98600000D01*
X132715000Y-98600000D02*
X133398000Y-98600000D01*
X133398000Y-98600000D02*
X133477000Y-98679000D01*
X130822000Y-110000000D02*
X130822000Y-110578000D01*
X130822000Y-110578000D02*
X130400000Y-111000000D01*
G04 #@! TO.N,SWDCLK*
X131880355Y-95495307D02*
X132596693Y-95495307D01*
X130239000Y-96167000D02*
X131208662Y-96167000D01*
X132596693Y-95495307D02*
X132669001Y-95422999D01*
X132669001Y-95422999D02*
X132969000Y-95123000D01*
X131208662Y-96167000D02*
X131880355Y-95495307D01*
D31*
G04 #@! TO.N,Net-(C2-Pad2)*
X138800000Y-112750000D02*
X137000000Y-112750000D01*
X137000000Y-112750000D02*
X139850000Y-112750000D01*
X140600000Y-113500000D02*
X140600000Y-114350000D01*
X139850000Y-112750000D02*
X140600000Y-113500000D01*
D33*
G04 #@! TO.N,Net-(D1-Pad1)*
X132752000Y-108200000D02*
X132350000Y-108200000D01*
X134602000Y-108200000D02*
X132752000Y-108200000D01*
X134850000Y-107952000D02*
X134602000Y-108200000D01*
X134850000Y-107200000D02*
X134850000Y-107952000D01*
G04 #@! TD*
D34*
G04 #@! TO.N,GND*
G36*
X127822411Y-114308027D02*
X127873000Y-114318090D01*
X127873000Y-114348102D01*
X127862677Y-114400000D01*
X127873000Y-114451898D01*
X127873000Y-114451903D01*
X127893632Y-114555625D01*
X127903578Y-114605625D01*
X127990654Y-114735944D01*
X127990658Y-114735948D01*
X128020056Y-114779945D01*
X128064053Y-114809343D01*
X128590656Y-115335947D01*
X128620055Y-115379945D01*
X128664052Y-115409343D01*
X128664055Y-115409346D01*
X128758162Y-115472226D01*
X128794375Y-115496423D01*
X128948097Y-115527000D01*
X128948101Y-115527000D01*
X128999999Y-115537323D01*
X129051897Y-115527000D01*
X129759970Y-115527000D01*
X129431187Y-115855783D01*
X129252000Y-116288380D01*
X129252000Y-116756620D01*
X129431187Y-117189217D01*
X129762283Y-117520313D01*
X129882842Y-117570250D01*
X129762283Y-117620187D01*
X129431187Y-117951283D01*
X129301656Y-118264000D01*
X127132895Y-118264000D01*
X127242780Y-118218484D01*
X127489484Y-117971780D01*
X127623000Y-117649446D01*
X127623000Y-117300554D01*
X127489484Y-116978220D01*
X127242780Y-116731516D01*
X126920446Y-116598000D01*
X126571554Y-116598000D01*
X126373626Y-116679985D01*
X126526000Y-116312120D01*
X126526000Y-115843880D01*
X126416765Y-115580162D01*
X127742377Y-114254551D01*
X127822411Y-114308027D01*
X127822411Y-114308027D01*
G37*
X127822411Y-114308027D02*
X127873000Y-114318090D01*
X127873000Y-114348102D01*
X127862677Y-114400000D01*
X127873000Y-114451898D01*
X127873000Y-114451903D01*
X127893632Y-114555625D01*
X127903578Y-114605625D01*
X127990654Y-114735944D01*
X127990658Y-114735948D01*
X128020056Y-114779945D01*
X128064053Y-114809343D01*
X128590656Y-115335947D01*
X128620055Y-115379945D01*
X128664052Y-115409343D01*
X128664055Y-115409346D01*
X128758162Y-115472226D01*
X128794375Y-115496423D01*
X128948097Y-115527000D01*
X128948101Y-115527000D01*
X128999999Y-115537323D01*
X129051897Y-115527000D01*
X129759970Y-115527000D01*
X129431187Y-115855783D01*
X129252000Y-116288380D01*
X129252000Y-116756620D01*
X129431187Y-117189217D01*
X129762283Y-117520313D01*
X129882842Y-117570250D01*
X129762283Y-117620187D01*
X129431187Y-117951283D01*
X129301656Y-118264000D01*
X127132895Y-118264000D01*
X127242780Y-118218484D01*
X127489484Y-117971780D01*
X127623000Y-117649446D01*
X127623000Y-117300554D01*
X127489484Y-116978220D01*
X127242780Y-116731516D01*
X126920446Y-116598000D01*
X126571554Y-116598000D01*
X126373626Y-116679985D01*
X126526000Y-116312120D01*
X126526000Y-115843880D01*
X126416765Y-115580162D01*
X127742377Y-114254551D01*
X127822411Y-114308027D01*
G36*
X135636000Y-116395500D02*
X135656000Y-116395500D01*
X135656000Y-116649500D01*
X135636000Y-116649500D01*
X135636000Y-118264000D01*
X135382000Y-118264000D01*
X135382000Y-116649500D01*
X135362000Y-116649500D01*
X135362000Y-116395500D01*
X135382000Y-116395500D01*
X135382000Y-116375500D01*
X135636000Y-116375500D01*
X135636000Y-116395500D01*
X135636000Y-116395500D01*
G37*
X135636000Y-116395500D02*
X135656000Y-116395500D01*
X135656000Y-116649500D01*
X135636000Y-116649500D01*
X135636000Y-118264000D01*
X135382000Y-118264000D01*
X135382000Y-116649500D01*
X135362000Y-116649500D01*
X135362000Y-116395500D01*
X135382000Y-116395500D01*
X135382000Y-116375500D01*
X135636000Y-116375500D01*
X135636000Y-116395500D01*
G36*
X135716594Y-108736521D02*
X135716594Y-109600000D01*
X135741973Y-109727589D01*
X135814246Y-109835754D01*
X135922411Y-109908027D01*
X136050000Y-109933406D01*
X137950000Y-109933406D01*
X137973180Y-109928795D01*
X137811673Y-110090301D01*
X137722134Y-110306468D01*
X137501310Y-110215000D01*
X137285750Y-110215000D01*
X137127000Y-110373750D01*
X137127000Y-111123000D01*
X137147000Y-111123000D01*
X137147000Y-111377000D01*
X137127000Y-111377000D01*
X137127000Y-111397000D01*
X136873000Y-111397000D01*
X136873000Y-111377000D01*
X136148750Y-111377000D01*
X135990000Y-111535750D01*
X135990000Y-111776309D01*
X136086673Y-112009698D01*
X136265301Y-112188327D01*
X136323609Y-112212479D01*
X136316973Y-112222411D01*
X136291594Y-112350000D01*
X136291594Y-113150000D01*
X136316973Y-113277589D01*
X136389246Y-113385754D01*
X136497411Y-113458027D01*
X136625000Y-113483406D01*
X137375000Y-113483406D01*
X137502589Y-113458027D01*
X137610754Y-113385754D01*
X137683027Y-113277589D01*
X137683144Y-113277000D01*
X138041856Y-113277000D01*
X138041973Y-113277589D01*
X138114246Y-113385754D01*
X138222411Y-113458027D01*
X138350000Y-113483406D01*
X139250000Y-113483406D01*
X139377589Y-113458027D01*
X139485754Y-113385754D01*
X139558027Y-113277589D01*
X139558144Y-113277000D01*
X139631710Y-113277000D01*
X139934360Y-113579651D01*
X139872411Y-113591973D01*
X139764246Y-113664246D01*
X139691973Y-113772411D01*
X139666594Y-113900000D01*
X139666594Y-114800000D01*
X139691973Y-114927589D01*
X139764246Y-115035754D01*
X139872411Y-115108027D01*
X140000000Y-115133406D01*
X141200000Y-115133406D01*
X141327589Y-115108027D01*
X141435754Y-115035754D01*
X141508027Y-114927589D01*
X141533406Y-114800000D01*
X141533406Y-114034628D01*
X141686097Y-114065000D01*
X141686101Y-114065000D01*
X141737999Y-114075323D01*
X141789897Y-114065000D01*
X142073314Y-114065000D01*
X142131187Y-114204717D01*
X142462283Y-114535813D01*
X142740844Y-114651196D01*
X142247642Y-114882817D01*
X141857355Y-115311076D01*
X141687524Y-115721110D01*
X141808845Y-115951000D01*
X142775001Y-115951000D01*
X142775001Y-116205000D01*
X141808845Y-116205000D01*
X141687524Y-116434890D01*
X141857355Y-116844924D01*
X142247642Y-117273183D01*
X142741810Y-117505257D01*
X142714627Y-117659421D01*
X142556512Y-117933283D01*
X142314268Y-118136550D01*
X142002253Y-118250115D01*
X141843543Y-118264000D01*
X141483698Y-118264000D01*
X141508027Y-118227589D01*
X141533406Y-118100000D01*
X141533406Y-117200000D01*
X141508027Y-117072411D01*
X141435754Y-116964246D01*
X141327589Y-116891973D01*
X141200000Y-116866594D01*
X140561885Y-116866594D01*
X139881845Y-116186555D01*
X139852445Y-116142555D01*
X139678125Y-116026077D01*
X139524403Y-115995500D01*
X139524398Y-115995500D01*
X139472500Y-115985177D01*
X139420602Y-115995500D01*
X139112435Y-115995500D01*
X138897569Y-115673931D01*
X138508242Y-115413791D01*
X138164920Y-115345500D01*
X137933080Y-115345500D01*
X137669683Y-115397893D01*
X136935845Y-114664055D01*
X136906445Y-114620055D01*
X136732125Y-114503577D01*
X136578403Y-114473000D01*
X136578398Y-114473000D01*
X136526500Y-114462677D01*
X136474602Y-114473000D01*
X135318885Y-114473000D01*
X135333406Y-114400000D01*
X135333406Y-113750000D01*
X135308027Y-113622411D01*
X135235754Y-113514246D01*
X135127589Y-113441973D01*
X135000000Y-113416594D01*
X133950000Y-113416594D01*
X133822411Y-113441973D01*
X133714246Y-113514246D01*
X133641973Y-113622411D01*
X133616594Y-113750000D01*
X133616594Y-114400000D01*
X133631115Y-114473000D01*
X131168885Y-114473000D01*
X131183406Y-114400000D01*
X131183406Y-113750000D01*
X131158027Y-113622411D01*
X131085754Y-113514246D01*
X130977589Y-113441973D01*
X130850000Y-113416594D01*
X130728000Y-113416594D01*
X130728000Y-113346689D01*
X130735895Y-113306999D01*
X130704617Y-113149757D01*
X130615547Y-113016453D01*
X130581897Y-112993969D01*
X130452002Y-112864074D01*
X130452002Y-112726252D01*
X130610750Y-112885000D01*
X130976309Y-112885000D01*
X131209698Y-112788327D01*
X131388327Y-112609699D01*
X131485000Y-112376310D01*
X131485000Y-112210750D01*
X131326250Y-112052000D01*
X130452000Y-112052000D01*
X130452000Y-112072000D01*
X130198000Y-112072000D01*
X130198000Y-112052000D01*
X130178000Y-112052000D01*
X130178000Y-111798000D01*
X130198000Y-111798000D01*
X130198000Y-111778000D01*
X130452000Y-111778000D01*
X130452000Y-111798000D01*
X131326250Y-111798000D01*
X131485000Y-111639250D01*
X131485000Y-111473690D01*
X131388327Y-111240301D01*
X131209698Y-111061673D01*
X131027000Y-110985997D01*
X131027000Y-110942929D01*
X131078899Y-110891029D01*
X131112547Y-110868547D01*
X131184371Y-110761054D01*
X131199589Y-110758027D01*
X131307754Y-110685754D01*
X131380027Y-110577589D01*
X131405406Y-110450000D01*
X131405406Y-109550000D01*
X131380027Y-109422411D01*
X131325473Y-109340765D01*
X131470650Y-109485941D01*
X131500052Y-109529944D01*
X131674372Y-109646422D01*
X131738594Y-109659196D01*
X131738594Y-110450000D01*
X131763973Y-110577589D01*
X131836246Y-110685754D01*
X131941793Y-110756278D01*
X131942383Y-110759242D01*
X131945482Y-110763880D01*
X132031454Y-110892547D01*
X132065104Y-110915031D01*
X132406969Y-111256897D01*
X132429453Y-111290547D01*
X132548446Y-111370055D01*
X132562757Y-111379617D01*
X132720000Y-111410895D01*
X132759690Y-111403000D01*
X133688352Y-111403000D01*
X133641973Y-111472411D01*
X133616594Y-111600000D01*
X133616594Y-112250000D01*
X133641973Y-112377589D01*
X133714246Y-112485754D01*
X133822411Y-112558027D01*
X133950000Y-112583406D01*
X135000000Y-112583406D01*
X135127589Y-112558027D01*
X135235754Y-112485754D01*
X135308027Y-112377589D01*
X135333406Y-112250000D01*
X135333406Y-111600000D01*
X135308027Y-111472411D01*
X135235754Y-111364246D01*
X135127589Y-111291973D01*
X135000000Y-111266594D01*
X134506552Y-111266594D01*
X134513033Y-111256894D01*
X135046236Y-110723691D01*
X135990000Y-110723691D01*
X135990000Y-110964250D01*
X136148750Y-111123000D01*
X136873000Y-111123000D01*
X136873000Y-110373750D01*
X136714250Y-110215000D01*
X136498690Y-110215000D01*
X136265301Y-110311673D01*
X136086673Y-110490302D01*
X135990000Y-110723691D01*
X135046236Y-110723691D01*
X135106897Y-110663031D01*
X135140547Y-110640547D01*
X135229617Y-110507243D01*
X135232987Y-110490302D01*
X135260895Y-110350000D01*
X135253000Y-110310310D01*
X135253000Y-110107752D01*
X135360754Y-110035754D01*
X135433027Y-109927589D01*
X135458406Y-109800000D01*
X135458406Y-108600000D01*
X135433027Y-108472411D01*
X135393848Y-108413775D01*
X135716594Y-108736521D01*
X135716594Y-108736521D01*
G37*
X135716594Y-108736521D02*
X135716594Y-109600000D01*
X135741973Y-109727589D01*
X135814246Y-109835754D01*
X135922411Y-109908027D01*
X136050000Y-109933406D01*
X137950000Y-109933406D01*
X137973180Y-109928795D01*
X137811673Y-110090301D01*
X137722134Y-110306468D01*
X137501310Y-110215000D01*
X137285750Y-110215000D01*
X137127000Y-110373750D01*
X137127000Y-111123000D01*
X137147000Y-111123000D01*
X137147000Y-111377000D01*
X137127000Y-111377000D01*
X137127000Y-111397000D01*
X136873000Y-111397000D01*
X136873000Y-111377000D01*
X136148750Y-111377000D01*
X135990000Y-111535750D01*
X135990000Y-111776309D01*
X136086673Y-112009698D01*
X136265301Y-112188327D01*
X136323609Y-112212479D01*
X136316973Y-112222411D01*
X136291594Y-112350000D01*
X136291594Y-113150000D01*
X136316973Y-113277589D01*
X136389246Y-113385754D01*
X136497411Y-113458027D01*
X136625000Y-113483406D01*
X137375000Y-113483406D01*
X137502589Y-113458027D01*
X137610754Y-113385754D01*
X137683027Y-113277589D01*
X137683144Y-113277000D01*
X138041856Y-113277000D01*
X138041973Y-113277589D01*
X138114246Y-113385754D01*
X138222411Y-113458027D01*
X138350000Y-113483406D01*
X139250000Y-113483406D01*
X139377589Y-113458027D01*
X139485754Y-113385754D01*
X139558027Y-113277589D01*
X139558144Y-113277000D01*
X139631710Y-113277000D01*
X139934360Y-113579651D01*
X139872411Y-113591973D01*
X139764246Y-113664246D01*
X139691973Y-113772411D01*
X139666594Y-113900000D01*
X139666594Y-114800000D01*
X139691973Y-114927589D01*
X139764246Y-115035754D01*
X139872411Y-115108027D01*
X140000000Y-115133406D01*
X141200000Y-115133406D01*
X141327589Y-115108027D01*
X141435754Y-115035754D01*
X141508027Y-114927589D01*
X141533406Y-114800000D01*
X141533406Y-114034628D01*
X141686097Y-114065000D01*
X141686101Y-114065000D01*
X141737999Y-114075323D01*
X141789897Y-114065000D01*
X142073314Y-114065000D01*
X142131187Y-114204717D01*
X142462283Y-114535813D01*
X142740844Y-114651196D01*
X142247642Y-114882817D01*
X141857355Y-115311076D01*
X141687524Y-115721110D01*
X141808845Y-115951000D01*
X142775001Y-115951000D01*
X142775001Y-116205000D01*
X141808845Y-116205000D01*
X141687524Y-116434890D01*
X141857355Y-116844924D01*
X142247642Y-117273183D01*
X142741810Y-117505257D01*
X142714627Y-117659421D01*
X142556512Y-117933283D01*
X142314268Y-118136550D01*
X142002253Y-118250115D01*
X141843543Y-118264000D01*
X141483698Y-118264000D01*
X141508027Y-118227589D01*
X141533406Y-118100000D01*
X141533406Y-117200000D01*
X141508027Y-117072411D01*
X141435754Y-116964246D01*
X141327589Y-116891973D01*
X141200000Y-116866594D01*
X140561885Y-116866594D01*
X139881845Y-116186555D01*
X139852445Y-116142555D01*
X139678125Y-116026077D01*
X139524403Y-115995500D01*
X139524398Y-115995500D01*
X139472500Y-115985177D01*
X139420602Y-115995500D01*
X139112435Y-115995500D01*
X138897569Y-115673931D01*
X138508242Y-115413791D01*
X138164920Y-115345500D01*
X137933080Y-115345500D01*
X137669683Y-115397893D01*
X136935845Y-114664055D01*
X136906445Y-114620055D01*
X136732125Y-114503577D01*
X136578403Y-114473000D01*
X136578398Y-114473000D01*
X136526500Y-114462677D01*
X136474602Y-114473000D01*
X135318885Y-114473000D01*
X135333406Y-114400000D01*
X135333406Y-113750000D01*
X135308027Y-113622411D01*
X135235754Y-113514246D01*
X135127589Y-113441973D01*
X135000000Y-113416594D01*
X133950000Y-113416594D01*
X133822411Y-113441973D01*
X133714246Y-113514246D01*
X133641973Y-113622411D01*
X133616594Y-113750000D01*
X133616594Y-114400000D01*
X133631115Y-114473000D01*
X131168885Y-114473000D01*
X131183406Y-114400000D01*
X131183406Y-113750000D01*
X131158027Y-113622411D01*
X131085754Y-113514246D01*
X130977589Y-113441973D01*
X130850000Y-113416594D01*
X130728000Y-113416594D01*
X130728000Y-113346689D01*
X130735895Y-113306999D01*
X130704617Y-113149757D01*
X130615547Y-113016453D01*
X130581897Y-112993969D01*
X130452002Y-112864074D01*
X130452002Y-112726252D01*
X130610750Y-112885000D01*
X130976309Y-112885000D01*
X131209698Y-112788327D01*
X131388327Y-112609699D01*
X131485000Y-112376310D01*
X131485000Y-112210750D01*
X131326250Y-112052000D01*
X130452000Y-112052000D01*
X130452000Y-112072000D01*
X130198000Y-112072000D01*
X130198000Y-112052000D01*
X130178000Y-112052000D01*
X130178000Y-111798000D01*
X130198000Y-111798000D01*
X130198000Y-111778000D01*
X130452000Y-111778000D01*
X130452000Y-111798000D01*
X131326250Y-111798000D01*
X131485000Y-111639250D01*
X131485000Y-111473690D01*
X131388327Y-111240301D01*
X131209698Y-111061673D01*
X131027000Y-110985997D01*
X131027000Y-110942929D01*
X131078899Y-110891029D01*
X131112547Y-110868547D01*
X131184371Y-110761054D01*
X131199589Y-110758027D01*
X131307754Y-110685754D01*
X131380027Y-110577589D01*
X131405406Y-110450000D01*
X131405406Y-109550000D01*
X131380027Y-109422411D01*
X131325473Y-109340765D01*
X131470650Y-109485941D01*
X131500052Y-109529944D01*
X131674372Y-109646422D01*
X131738594Y-109659196D01*
X131738594Y-110450000D01*
X131763973Y-110577589D01*
X131836246Y-110685754D01*
X131941793Y-110756278D01*
X131942383Y-110759242D01*
X131945482Y-110763880D01*
X132031454Y-110892547D01*
X132065104Y-110915031D01*
X132406969Y-111256897D01*
X132429453Y-111290547D01*
X132548446Y-111370055D01*
X132562757Y-111379617D01*
X132720000Y-111410895D01*
X132759690Y-111403000D01*
X133688352Y-111403000D01*
X133641973Y-111472411D01*
X133616594Y-111600000D01*
X133616594Y-112250000D01*
X133641973Y-112377589D01*
X133714246Y-112485754D01*
X133822411Y-112558027D01*
X133950000Y-112583406D01*
X135000000Y-112583406D01*
X135127589Y-112558027D01*
X135235754Y-112485754D01*
X135308027Y-112377589D01*
X135333406Y-112250000D01*
X135333406Y-111600000D01*
X135308027Y-111472411D01*
X135235754Y-111364246D01*
X135127589Y-111291973D01*
X135000000Y-111266594D01*
X134506552Y-111266594D01*
X134513033Y-111256894D01*
X135046236Y-110723691D01*
X135990000Y-110723691D01*
X135990000Y-110964250D01*
X136148750Y-111123000D01*
X136873000Y-111123000D01*
X136873000Y-110373750D01*
X136714250Y-110215000D01*
X136498690Y-110215000D01*
X136265301Y-110311673D01*
X136086673Y-110490302D01*
X135990000Y-110723691D01*
X135046236Y-110723691D01*
X135106897Y-110663031D01*
X135140547Y-110640547D01*
X135229617Y-110507243D01*
X135232987Y-110490302D01*
X135260895Y-110350000D01*
X135253000Y-110310310D01*
X135253000Y-110107752D01*
X135360754Y-110035754D01*
X135433027Y-109927589D01*
X135458406Y-109800000D01*
X135458406Y-108600000D01*
X135433027Y-108472411D01*
X135393848Y-108413775D01*
X135716594Y-108736521D01*
G36*
X142020291Y-103837242D02*
X142280431Y-104226569D01*
X142669758Y-104486709D01*
X142775000Y-104507643D01*
X142775000Y-104788357D01*
X142669758Y-104809291D01*
X142280431Y-105069431D01*
X142020291Y-105458758D01*
X141928942Y-105918000D01*
X142020291Y-106377242D01*
X142280431Y-106766569D01*
X142669758Y-107026709D01*
X142775001Y-107047643D01*
X142775001Y-107328357D01*
X142669758Y-107349291D01*
X142280431Y-107609431D01*
X142020291Y-107998758D01*
X141928942Y-108458000D01*
X142020291Y-108917242D01*
X142280431Y-109306569D01*
X142669758Y-109566709D01*
X142775001Y-109587643D01*
X142775001Y-109870655D01*
X142462283Y-110000187D01*
X142131187Y-110331283D01*
X141952000Y-110763880D01*
X141952000Y-111232120D01*
X142131187Y-111664717D01*
X142462283Y-111995813D01*
X142775001Y-112125345D01*
X142775001Y-112410655D01*
X142462283Y-112540187D01*
X142131187Y-112871283D01*
X142073314Y-113011000D01*
X141956291Y-113011000D01*
X141422985Y-112477695D01*
X141485754Y-112435754D01*
X141558027Y-112327589D01*
X141583406Y-112200000D01*
X141583406Y-111400000D01*
X141558027Y-111272411D01*
X141485754Y-111164246D01*
X141377589Y-111091973D01*
X141277000Y-111071965D01*
X141277000Y-109683144D01*
X141277589Y-109683027D01*
X141385754Y-109610754D01*
X141458027Y-109502589D01*
X141483406Y-109375000D01*
X141483406Y-108625000D01*
X141458027Y-108497411D01*
X141385754Y-108389246D01*
X141363045Y-108374073D01*
X141509698Y-108313327D01*
X141688327Y-108134699D01*
X141785000Y-107901310D01*
X141785000Y-107685750D01*
X141626250Y-107527000D01*
X140877000Y-107527000D01*
X140877000Y-107547000D01*
X140623000Y-107547000D01*
X140623000Y-107527000D01*
X140603000Y-107527000D01*
X140603000Y-107273000D01*
X140623000Y-107273000D01*
X140623000Y-105927000D01*
X140877000Y-105927000D01*
X140877000Y-107273000D01*
X141626250Y-107273000D01*
X141785000Y-107114250D01*
X141785000Y-106898690D01*
X141688327Y-106665301D01*
X141623026Y-106600000D01*
X141688327Y-106534699D01*
X141785000Y-106301310D01*
X141785000Y-106085750D01*
X141626250Y-105927000D01*
X140877000Y-105927000D01*
X140623000Y-105927000D01*
X140603000Y-105927000D01*
X140603000Y-105673000D01*
X140623000Y-105673000D01*
X140623000Y-105653000D01*
X140877000Y-105653000D01*
X140877000Y-105673000D01*
X141626250Y-105673000D01*
X141785000Y-105514250D01*
X141785000Y-105310270D01*
X142011813Y-105216321D01*
X142216321Y-105011813D01*
X142327000Y-104744609D01*
X142327000Y-104455391D01*
X142216321Y-104188187D01*
X142011813Y-103983679D01*
X141828289Y-103907661D01*
X141844349Y-103904467D01*
X141952514Y-103832194D01*
X142003969Y-103755186D01*
X142020291Y-103837242D01*
X142020291Y-103837242D01*
G37*
X142020291Y-103837242D02*
X142280431Y-104226569D01*
X142669758Y-104486709D01*
X142775000Y-104507643D01*
X142775000Y-104788357D01*
X142669758Y-104809291D01*
X142280431Y-105069431D01*
X142020291Y-105458758D01*
X141928942Y-105918000D01*
X142020291Y-106377242D01*
X142280431Y-106766569D01*
X142669758Y-107026709D01*
X142775001Y-107047643D01*
X142775001Y-107328357D01*
X142669758Y-107349291D01*
X142280431Y-107609431D01*
X142020291Y-107998758D01*
X141928942Y-108458000D01*
X142020291Y-108917242D01*
X142280431Y-109306569D01*
X142669758Y-109566709D01*
X142775001Y-109587643D01*
X142775001Y-109870655D01*
X142462283Y-110000187D01*
X142131187Y-110331283D01*
X141952000Y-110763880D01*
X141952000Y-111232120D01*
X142131187Y-111664717D01*
X142462283Y-111995813D01*
X142775001Y-112125345D01*
X142775001Y-112410655D01*
X142462283Y-112540187D01*
X142131187Y-112871283D01*
X142073314Y-113011000D01*
X141956291Y-113011000D01*
X141422985Y-112477695D01*
X141485754Y-112435754D01*
X141558027Y-112327589D01*
X141583406Y-112200000D01*
X141583406Y-111400000D01*
X141558027Y-111272411D01*
X141485754Y-111164246D01*
X141377589Y-111091973D01*
X141277000Y-111071965D01*
X141277000Y-109683144D01*
X141277589Y-109683027D01*
X141385754Y-109610754D01*
X141458027Y-109502589D01*
X141483406Y-109375000D01*
X141483406Y-108625000D01*
X141458027Y-108497411D01*
X141385754Y-108389246D01*
X141363045Y-108374073D01*
X141509698Y-108313327D01*
X141688327Y-108134699D01*
X141785000Y-107901310D01*
X141785000Y-107685750D01*
X141626250Y-107527000D01*
X140877000Y-107527000D01*
X140877000Y-107547000D01*
X140623000Y-107547000D01*
X140623000Y-107527000D01*
X140603000Y-107527000D01*
X140603000Y-107273000D01*
X140623000Y-107273000D01*
X140623000Y-105927000D01*
X140877000Y-105927000D01*
X140877000Y-107273000D01*
X141626250Y-107273000D01*
X141785000Y-107114250D01*
X141785000Y-106898690D01*
X141688327Y-106665301D01*
X141623026Y-106600000D01*
X141688327Y-106534699D01*
X141785000Y-106301310D01*
X141785000Y-106085750D01*
X141626250Y-105927000D01*
X140877000Y-105927000D01*
X140623000Y-105927000D01*
X140603000Y-105927000D01*
X140603000Y-105673000D01*
X140623000Y-105673000D01*
X140623000Y-105653000D01*
X140877000Y-105653000D01*
X140877000Y-105673000D01*
X141626250Y-105673000D01*
X141785000Y-105514250D01*
X141785000Y-105310270D01*
X142011813Y-105216321D01*
X142216321Y-105011813D01*
X142327000Y-104744609D01*
X142327000Y-104455391D01*
X142216321Y-104188187D01*
X142011813Y-103983679D01*
X141828289Y-103907661D01*
X141844349Y-103904467D01*
X141952514Y-103832194D01*
X142003969Y-103755186D01*
X142020291Y-103837242D01*
G36*
X140222411Y-109683027D02*
X140223000Y-109683144D01*
X140223001Y-111091856D01*
X140222411Y-111091973D01*
X140114246Y-111164246D01*
X140041973Y-111272411D01*
X140016594Y-111400000D01*
X140016594Y-112200000D01*
X140026082Y-112247701D01*
X139901903Y-112223000D01*
X139901898Y-112223000D01*
X139850000Y-112212677D01*
X139798102Y-112223000D01*
X139558144Y-112223000D01*
X139558027Y-112222411D01*
X139485754Y-112114246D01*
X139377589Y-112041973D01*
X139250000Y-112016594D01*
X138350000Y-112016594D01*
X138222411Y-112041973D01*
X138114246Y-112114246D01*
X138041973Y-112222411D01*
X138041856Y-112223000D01*
X137683144Y-112223000D01*
X137683027Y-112222411D01*
X137676391Y-112212479D01*
X137734699Y-112188327D01*
X137913327Y-112009698D01*
X138002866Y-111793531D01*
X138223691Y-111885000D01*
X138514250Y-111885000D01*
X138673000Y-111726250D01*
X138673000Y-110977000D01*
X138927000Y-110977000D01*
X138927000Y-111726250D01*
X139085750Y-111885000D01*
X139376309Y-111885000D01*
X139609698Y-111788327D01*
X139788327Y-111609699D01*
X139885000Y-111376310D01*
X139885000Y-111135750D01*
X139726250Y-110977000D01*
X138927000Y-110977000D01*
X138673000Y-110977000D01*
X138653000Y-110977000D01*
X138653000Y-110723000D01*
X138673000Y-110723000D01*
X138673000Y-110703000D01*
X138927000Y-110703000D01*
X138927000Y-110723000D01*
X139726250Y-110723000D01*
X139885000Y-110564250D01*
X139885000Y-110323690D01*
X139788327Y-110090301D01*
X139708026Y-110010000D01*
X139776309Y-110010000D01*
X140009698Y-109913327D01*
X140188327Y-109734699D01*
X140212479Y-109676391D01*
X140222411Y-109683027D01*
X140222411Y-109683027D01*
G37*
X140222411Y-109683027D02*
X140223000Y-109683144D01*
X140223001Y-111091856D01*
X140222411Y-111091973D01*
X140114246Y-111164246D01*
X140041973Y-111272411D01*
X140016594Y-111400000D01*
X140016594Y-112200000D01*
X140026082Y-112247701D01*
X139901903Y-112223000D01*
X139901898Y-112223000D01*
X139850000Y-112212677D01*
X139798102Y-112223000D01*
X139558144Y-112223000D01*
X139558027Y-112222411D01*
X139485754Y-112114246D01*
X139377589Y-112041973D01*
X139250000Y-112016594D01*
X138350000Y-112016594D01*
X138222411Y-112041973D01*
X138114246Y-112114246D01*
X138041973Y-112222411D01*
X138041856Y-112223000D01*
X137683144Y-112223000D01*
X137683027Y-112222411D01*
X137676391Y-112212479D01*
X137734699Y-112188327D01*
X137913327Y-112009698D01*
X138002866Y-111793531D01*
X138223691Y-111885000D01*
X138514250Y-111885000D01*
X138673000Y-111726250D01*
X138673000Y-110977000D01*
X138927000Y-110977000D01*
X138927000Y-111726250D01*
X139085750Y-111885000D01*
X139376309Y-111885000D01*
X139609698Y-111788327D01*
X139788327Y-111609699D01*
X139885000Y-111376310D01*
X139885000Y-111135750D01*
X139726250Y-110977000D01*
X138927000Y-110977000D01*
X138673000Y-110977000D01*
X138653000Y-110977000D01*
X138653000Y-110723000D01*
X138673000Y-110723000D01*
X138673000Y-110703000D01*
X138927000Y-110703000D01*
X138927000Y-110723000D01*
X139726250Y-110723000D01*
X139885000Y-110564250D01*
X139885000Y-110323690D01*
X139788327Y-110090301D01*
X139708026Y-110010000D01*
X139776309Y-110010000D01*
X140009698Y-109913327D01*
X140188327Y-109734699D01*
X140212479Y-109676391D01*
X140222411Y-109683027D01*
G36*
X128622411Y-107083027D02*
X128750000Y-107108406D01*
X129138116Y-107108406D01*
X129327730Y-107298020D01*
X129277000Y-107348750D01*
X129277000Y-108073000D01*
X130026250Y-108073000D01*
X130185000Y-107914250D01*
X130185000Y-107876999D01*
X130266594Y-107876999D01*
X130266594Y-108213478D01*
X130107073Y-108373000D01*
X130075282Y-108373000D01*
X130073138Y-108373888D01*
X130026250Y-108327000D01*
X129277000Y-108327000D01*
X129277000Y-109051250D01*
X129325750Y-109100000D01*
X129277000Y-109148750D01*
X129277000Y-109873000D01*
X130026250Y-109873000D01*
X130185000Y-109714250D01*
X130185000Y-109627000D01*
X130238594Y-109627000D01*
X130238594Y-110388197D01*
X130185000Y-110410396D01*
X130185000Y-110285750D01*
X130026250Y-110127000D01*
X129277000Y-110127000D01*
X129277000Y-110851250D01*
X129435750Y-111010000D01*
X129565052Y-111010000D01*
X129440302Y-111061673D01*
X129261673Y-111240301D01*
X129165000Y-111473690D01*
X129165000Y-111573000D01*
X129075282Y-111573000D01*
X128849326Y-111666594D01*
X128053000Y-111666594D01*
X128053000Y-110707809D01*
X128177589Y-110683027D01*
X128187521Y-110676391D01*
X128211673Y-110734699D01*
X128390302Y-110913327D01*
X128623691Y-111010000D01*
X128864250Y-111010000D01*
X129023000Y-110851250D01*
X129023000Y-110127000D01*
X129003000Y-110127000D01*
X129003000Y-109873000D01*
X129023000Y-109873000D01*
X129023000Y-109148750D01*
X128974250Y-109100000D01*
X129023000Y-109051250D01*
X129023000Y-108327000D01*
X129003000Y-108327000D01*
X129003000Y-108073000D01*
X129023000Y-108073000D01*
X129023000Y-107348750D01*
X128864250Y-107190000D01*
X128623691Y-107190000D01*
X128578603Y-107208676D01*
X128546476Y-107176549D01*
X128588327Y-107134699D01*
X128612479Y-107076391D01*
X128622411Y-107083027D01*
X128622411Y-107083027D01*
G37*
X128622411Y-107083027D02*
X128750000Y-107108406D01*
X129138116Y-107108406D01*
X129327730Y-107298020D01*
X129277000Y-107348750D01*
X129277000Y-108073000D01*
X130026250Y-108073000D01*
X130185000Y-107914250D01*
X130185000Y-107876999D01*
X130266594Y-107876999D01*
X130266594Y-108213478D01*
X130107073Y-108373000D01*
X130075282Y-108373000D01*
X130073138Y-108373888D01*
X130026250Y-108327000D01*
X129277000Y-108327000D01*
X129277000Y-109051250D01*
X129325750Y-109100000D01*
X129277000Y-109148750D01*
X129277000Y-109873000D01*
X130026250Y-109873000D01*
X130185000Y-109714250D01*
X130185000Y-109627000D01*
X130238594Y-109627000D01*
X130238594Y-110388197D01*
X130185000Y-110410396D01*
X130185000Y-110285750D01*
X130026250Y-110127000D01*
X129277000Y-110127000D01*
X129277000Y-110851250D01*
X129435750Y-111010000D01*
X129565052Y-111010000D01*
X129440302Y-111061673D01*
X129261673Y-111240301D01*
X129165000Y-111473690D01*
X129165000Y-111573000D01*
X129075282Y-111573000D01*
X128849326Y-111666594D01*
X128053000Y-111666594D01*
X128053000Y-110707809D01*
X128177589Y-110683027D01*
X128187521Y-110676391D01*
X128211673Y-110734699D01*
X128390302Y-110913327D01*
X128623691Y-111010000D01*
X128864250Y-111010000D01*
X129023000Y-110851250D01*
X129023000Y-110127000D01*
X129003000Y-110127000D01*
X129003000Y-109873000D01*
X129023000Y-109873000D01*
X129023000Y-109148750D01*
X128974250Y-109100000D01*
X129023000Y-109051250D01*
X129023000Y-108327000D01*
X129003000Y-108327000D01*
X129003000Y-108073000D01*
X129023000Y-108073000D01*
X129023000Y-107348750D01*
X128864250Y-107190000D01*
X128623691Y-107190000D01*
X128578603Y-107208676D01*
X128546476Y-107176549D01*
X128588327Y-107134699D01*
X128612479Y-107076391D01*
X128622411Y-107083027D01*
G36*
X139377000Y-108873000D02*
X139397000Y-108873000D01*
X139397000Y-109127000D01*
X139377000Y-109127000D01*
X139377000Y-109147000D01*
X139123000Y-109147000D01*
X139123000Y-109127000D01*
X139103000Y-109127000D01*
X139103000Y-108873000D01*
X139123000Y-108873000D01*
X139123000Y-108853000D01*
X139377000Y-108853000D01*
X139377000Y-108873000D01*
X139377000Y-108873000D01*
G37*
X139377000Y-108873000D02*
X139397000Y-108873000D01*
X139397000Y-109127000D01*
X139377000Y-109127000D01*
X139377000Y-109147000D01*
X139123000Y-109147000D01*
X139123000Y-109127000D01*
X139103000Y-109127000D01*
X139103000Y-108873000D01*
X139123000Y-108873000D01*
X139123000Y-108853000D01*
X139377000Y-108853000D01*
X139377000Y-108873000D01*
G36*
X129539000Y-103000406D02*
X129570686Y-103000406D01*
X129554000Y-103040690D01*
X129554000Y-103431250D01*
X129712750Y-103590000D01*
X130289000Y-103590000D01*
X130289000Y-103570000D01*
X130489000Y-103570000D01*
X130489000Y-103590000D01*
X130536000Y-103590000D01*
X130536000Y-103844000D01*
X130489000Y-103844000D01*
X130489000Y-103864000D01*
X130289000Y-103864000D01*
X130289000Y-103844000D01*
X129712750Y-103844000D01*
X129554000Y-104002750D01*
X129554000Y-104393310D01*
X129650673Y-104626699D01*
X129829302Y-104805327D01*
X129949567Y-104855143D01*
X129113116Y-105691594D01*
X128750000Y-105691594D01*
X128622411Y-105716973D01*
X128612479Y-105723609D01*
X128588327Y-105665301D01*
X128409698Y-105486673D01*
X128176309Y-105390000D01*
X127935750Y-105390000D01*
X127777000Y-105548750D01*
X127777000Y-106273000D01*
X127797000Y-106273000D01*
X127797000Y-106527000D01*
X127777000Y-106527000D01*
X127777000Y-106547000D01*
X127523000Y-106547000D01*
X127523000Y-106527000D01*
X127503000Y-106527000D01*
X127503000Y-106273000D01*
X127523000Y-106273000D01*
X127523000Y-105548750D01*
X127376999Y-105402749D01*
X127376999Y-105046928D01*
X129442681Y-102981247D01*
X129539000Y-103000406D01*
X129539000Y-103000406D01*
G37*
X129539000Y-103000406D02*
X129570686Y-103000406D01*
X129554000Y-103040690D01*
X129554000Y-103431250D01*
X129712750Y-103590000D01*
X130289000Y-103590000D01*
X130289000Y-103570000D01*
X130489000Y-103570000D01*
X130489000Y-103590000D01*
X130536000Y-103590000D01*
X130536000Y-103844000D01*
X130489000Y-103844000D01*
X130489000Y-103864000D01*
X130289000Y-103864000D01*
X130289000Y-103844000D01*
X129712750Y-103844000D01*
X129554000Y-104002750D01*
X129554000Y-104393310D01*
X129650673Y-104626699D01*
X129829302Y-104805327D01*
X129949567Y-104855143D01*
X129113116Y-105691594D01*
X128750000Y-105691594D01*
X128622411Y-105716973D01*
X128612479Y-105723609D01*
X128588327Y-105665301D01*
X128409698Y-105486673D01*
X128176309Y-105390000D01*
X127935750Y-105390000D01*
X127777000Y-105548750D01*
X127777000Y-106273000D01*
X127797000Y-106273000D01*
X127797000Y-106527000D01*
X127777000Y-106527000D01*
X127777000Y-106547000D01*
X127523000Y-106547000D01*
X127523000Y-106527000D01*
X127503000Y-106527000D01*
X127503000Y-106273000D01*
X127523000Y-106273000D01*
X127523000Y-105548750D01*
X127376999Y-105402749D01*
X127376999Y-105046928D01*
X129442681Y-102981247D01*
X129539000Y-103000406D01*
G36*
X140814246Y-101735754D02*
X140862129Y-101767748D01*
X140866894Y-101791700D01*
X140870383Y-101809242D01*
X140875222Y-101816484D01*
X140875222Y-102067052D01*
X140867327Y-102106742D01*
X140879034Y-102165596D01*
X140809293Y-102269971D01*
X140783914Y-102397560D01*
X140783914Y-103596440D01*
X140809293Y-103724029D01*
X140881566Y-103832194D01*
X140989731Y-103904467D01*
X141117320Y-103929846D01*
X141318152Y-103929846D01*
X141188187Y-103983679D01*
X140983679Y-104188187D01*
X140873000Y-104455391D01*
X140873000Y-104626000D01*
X138827617Y-104626000D01*
X138924000Y-104393310D01*
X138924000Y-104002750D01*
X138765250Y-103844000D01*
X138189000Y-103844000D01*
X138189000Y-103864000D01*
X137989000Y-103864000D01*
X137989000Y-103844000D01*
X137942000Y-103844000D01*
X137942000Y-103590000D01*
X137989000Y-103590000D01*
X137989000Y-103570000D01*
X138189000Y-103570000D01*
X138189000Y-103590000D01*
X138765250Y-103590000D01*
X138924000Y-103431250D01*
X138924000Y-103040690D01*
X138907314Y-103000406D01*
X138939000Y-103000406D01*
X139066589Y-102975027D01*
X139174754Y-102902754D01*
X139196639Y-102870000D01*
X139318033Y-102870000D01*
X139381834Y-102933801D01*
X139381834Y-103596440D01*
X139407213Y-103724029D01*
X139479486Y-103832194D01*
X139587651Y-103904467D01*
X139715240Y-103929846D01*
X140314680Y-103929846D01*
X140442269Y-103904467D01*
X140550434Y-103832194D01*
X140622707Y-103724029D01*
X140648086Y-103596440D01*
X140648086Y-102397560D01*
X140622707Y-102269971D01*
X140550434Y-102161806D01*
X140442269Y-102089533D01*
X140314680Y-102064154D01*
X139715240Y-102064154D01*
X139710141Y-102065168D01*
X139721547Y-102057547D01*
X139744033Y-102023895D01*
X139984939Y-101782989D01*
X140022411Y-101808027D01*
X140150000Y-101833406D01*
X140550000Y-101833406D01*
X140677589Y-101808027D01*
X140785754Y-101735754D01*
X140800000Y-101714433D01*
X140814246Y-101735754D01*
X140814246Y-101735754D01*
G37*
X140814246Y-101735754D02*
X140862129Y-101767748D01*
X140866894Y-101791700D01*
X140870383Y-101809242D01*
X140875222Y-101816484D01*
X140875222Y-102067052D01*
X140867327Y-102106742D01*
X140879034Y-102165596D01*
X140809293Y-102269971D01*
X140783914Y-102397560D01*
X140783914Y-103596440D01*
X140809293Y-103724029D01*
X140881566Y-103832194D01*
X140989731Y-103904467D01*
X141117320Y-103929846D01*
X141318152Y-103929846D01*
X141188187Y-103983679D01*
X140983679Y-104188187D01*
X140873000Y-104455391D01*
X140873000Y-104626000D01*
X138827617Y-104626000D01*
X138924000Y-104393310D01*
X138924000Y-104002750D01*
X138765250Y-103844000D01*
X138189000Y-103844000D01*
X138189000Y-103864000D01*
X137989000Y-103864000D01*
X137989000Y-103844000D01*
X137942000Y-103844000D01*
X137942000Y-103590000D01*
X137989000Y-103590000D01*
X137989000Y-103570000D01*
X138189000Y-103570000D01*
X138189000Y-103590000D01*
X138765250Y-103590000D01*
X138924000Y-103431250D01*
X138924000Y-103040690D01*
X138907314Y-103000406D01*
X138939000Y-103000406D01*
X139066589Y-102975027D01*
X139174754Y-102902754D01*
X139196639Y-102870000D01*
X139318033Y-102870000D01*
X139381834Y-102933801D01*
X139381834Y-103596440D01*
X139407213Y-103724029D01*
X139479486Y-103832194D01*
X139587651Y-103904467D01*
X139715240Y-103929846D01*
X140314680Y-103929846D01*
X140442269Y-103904467D01*
X140550434Y-103832194D01*
X140622707Y-103724029D01*
X140648086Y-103596440D01*
X140648086Y-102397560D01*
X140622707Y-102269971D01*
X140550434Y-102161806D01*
X140442269Y-102089533D01*
X140314680Y-102064154D01*
X139715240Y-102064154D01*
X139710141Y-102065168D01*
X139721547Y-102057547D01*
X139744033Y-102023895D01*
X139984939Y-101782989D01*
X140022411Y-101808027D01*
X140150000Y-101833406D01*
X140550000Y-101833406D01*
X140677589Y-101808027D01*
X140785754Y-101735754D01*
X140800000Y-101714433D01*
X140814246Y-101735754D01*
G36*
X141751750Y-100641500D02*
X141968028Y-100641500D01*
X141928942Y-100838000D01*
X142020291Y-101297242D01*
X142280431Y-101686569D01*
X142669758Y-101946709D01*
X142775000Y-101967643D01*
X142775000Y-102248357D01*
X142669758Y-102269291D01*
X142280431Y-102529431D01*
X142050166Y-102874047D01*
X142050166Y-102397560D01*
X142024787Y-102269971D01*
X141952514Y-102161806D01*
X141844349Y-102089533D01*
X141790284Y-102078779D01*
X141707587Y-101955013D01*
X141681222Y-101937397D01*
X141681222Y-101738782D01*
X141685754Y-101735754D01*
X141758027Y-101627589D01*
X141783406Y-101500000D01*
X141783406Y-100900000D01*
X141758027Y-100772411D01*
X141685754Y-100664246D01*
X141593002Y-100602272D01*
X141593002Y-100482752D01*
X141751750Y-100641500D01*
X141751750Y-100641500D01*
G37*
X141751750Y-100641500D02*
X141968028Y-100641500D01*
X141928942Y-100838000D01*
X142020291Y-101297242D01*
X142280431Y-101686569D01*
X142669758Y-101946709D01*
X142775000Y-101967643D01*
X142775000Y-102248357D01*
X142669758Y-102269291D01*
X142280431Y-102529431D01*
X142050166Y-102874047D01*
X142050166Y-102397560D01*
X142024787Y-102269971D01*
X141952514Y-102161806D01*
X141844349Y-102089533D01*
X141790284Y-102078779D01*
X141707587Y-101955013D01*
X141681222Y-101937397D01*
X141681222Y-101738782D01*
X141685754Y-101735754D01*
X141758027Y-101627589D01*
X141783406Y-101500000D01*
X141783406Y-100900000D01*
X141758027Y-100772411D01*
X141685754Y-100664246D01*
X141593002Y-100602272D01*
X141593002Y-100482752D01*
X141751750Y-100641500D01*
G36*
X142669758Y-99406709D02*
X142775000Y-99427643D01*
X142775000Y-99708357D01*
X142669758Y-99729291D01*
X142455922Y-99872172D01*
X142342250Y-99758500D01*
X141593000Y-99758500D01*
X141593000Y-99778500D01*
X141339000Y-99778500D01*
X141339000Y-99758500D01*
X141319000Y-99758500D01*
X141319000Y-99504500D01*
X141339000Y-99504500D01*
X141339000Y-99484500D01*
X141593000Y-99484500D01*
X141593000Y-99504500D01*
X142342250Y-99504500D01*
X142501000Y-99345750D01*
X142501000Y-99293949D01*
X142669758Y-99406709D01*
X142669758Y-99406709D01*
G37*
X142669758Y-99406709D02*
X142775000Y-99427643D01*
X142775000Y-99708357D01*
X142669758Y-99729291D01*
X142455922Y-99872172D01*
X142342250Y-99758500D01*
X141593000Y-99758500D01*
X141593000Y-99778500D01*
X141339000Y-99778500D01*
X141339000Y-99758500D01*
X141319000Y-99758500D01*
X141319000Y-99504500D01*
X141339000Y-99504500D01*
X141339000Y-99484500D01*
X141593000Y-99484500D01*
X141593000Y-99504500D01*
X142342250Y-99504500D01*
X142501000Y-99345750D01*
X142501000Y-99293949D01*
X142669758Y-99406709D01*
G36*
X136904000Y-93540690D02*
X136904000Y-93681250D01*
X137062750Y-93840000D01*
X138112000Y-93840000D01*
X138112000Y-93820000D01*
X138366000Y-93820000D01*
X138366000Y-93840000D01*
X139415250Y-93840000D01*
X139574000Y-93681250D01*
X139574000Y-93540690D01*
X139568329Y-93527000D01*
X142775000Y-93527000D01*
X142775000Y-94628357D01*
X142669758Y-94649291D01*
X142280431Y-94909431D01*
X142020291Y-95298758D01*
X141928942Y-95758000D01*
X142020291Y-96217242D01*
X142280431Y-96606569D01*
X142669758Y-96866709D01*
X142775000Y-96887643D01*
X142775000Y-97168357D01*
X142669758Y-97189291D01*
X142280431Y-97449431D01*
X142020291Y-97838758D01*
X142009104Y-97895000D01*
X141388929Y-97895000D01*
X139404033Y-95910106D01*
X139381547Y-95876453D01*
X139248435Y-95787511D01*
X139272406Y-95667000D01*
X139272406Y-95267000D01*
X139247027Y-95139411D01*
X139174754Y-95031246D01*
X139066589Y-94958973D01*
X138939000Y-94933594D01*
X137539000Y-94933594D01*
X137411411Y-94958973D01*
X137303246Y-95031246D01*
X137281361Y-95064000D01*
X137268944Y-95064000D01*
X137229254Y-95056105D01*
X137189564Y-95064000D01*
X137072011Y-95087383D01*
X136938707Y-95176453D01*
X136916224Y-95210102D01*
X136627000Y-95499326D01*
X136627000Y-95475282D01*
X136531545Y-95244833D01*
X136355167Y-95068455D01*
X136124718Y-94973000D01*
X135875282Y-94973000D01*
X135644833Y-95068455D01*
X135468455Y-95244833D01*
X135373000Y-95475282D01*
X135373000Y-95657072D01*
X134957521Y-96072552D01*
X135019038Y-95924036D01*
X135019038Y-95674600D01*
X134923583Y-95444151D01*
X134747205Y-95267773D01*
X134516756Y-95172318D01*
X134267320Y-95172318D01*
X134036871Y-95267773D01*
X133908326Y-95396318D01*
X133727000Y-95396318D01*
X133727000Y-94252750D01*
X136904000Y-94252750D01*
X136904000Y-94393310D01*
X137000673Y-94626699D01*
X137179302Y-94805327D01*
X137412691Y-94902000D01*
X137953250Y-94902000D01*
X138112000Y-94743250D01*
X138112000Y-94094000D01*
X138366000Y-94094000D01*
X138366000Y-94743250D01*
X138524750Y-94902000D01*
X139065309Y-94902000D01*
X139298698Y-94805327D01*
X139477327Y-94626699D01*
X139574000Y-94393310D01*
X139574000Y-94252750D01*
X139415250Y-94094000D01*
X138366000Y-94094000D01*
X138112000Y-94094000D01*
X137062750Y-94094000D01*
X136904000Y-94252750D01*
X133727000Y-94252750D01*
X133727000Y-93527000D01*
X136909671Y-93527000D01*
X136904000Y-93540690D01*
X136904000Y-93540690D01*
G37*
X136904000Y-93540690D02*
X136904000Y-93681250D01*
X137062750Y-93840000D01*
X138112000Y-93840000D01*
X138112000Y-93820000D01*
X138366000Y-93820000D01*
X138366000Y-93840000D01*
X139415250Y-93840000D01*
X139574000Y-93681250D01*
X139574000Y-93540690D01*
X139568329Y-93527000D01*
X142775000Y-93527000D01*
X142775000Y-94628357D01*
X142669758Y-94649291D01*
X142280431Y-94909431D01*
X142020291Y-95298758D01*
X141928942Y-95758000D01*
X142020291Y-96217242D01*
X142280431Y-96606569D01*
X142669758Y-96866709D01*
X142775000Y-96887643D01*
X142775000Y-97168357D01*
X142669758Y-97189291D01*
X142280431Y-97449431D01*
X142020291Y-97838758D01*
X142009104Y-97895000D01*
X141388929Y-97895000D01*
X139404033Y-95910106D01*
X139381547Y-95876453D01*
X139248435Y-95787511D01*
X139272406Y-95667000D01*
X139272406Y-95267000D01*
X139247027Y-95139411D01*
X139174754Y-95031246D01*
X139066589Y-94958973D01*
X138939000Y-94933594D01*
X137539000Y-94933594D01*
X137411411Y-94958973D01*
X137303246Y-95031246D01*
X137281361Y-95064000D01*
X137268944Y-95064000D01*
X137229254Y-95056105D01*
X137189564Y-95064000D01*
X137072011Y-95087383D01*
X136938707Y-95176453D01*
X136916224Y-95210102D01*
X136627000Y-95499326D01*
X136627000Y-95475282D01*
X136531545Y-95244833D01*
X136355167Y-95068455D01*
X136124718Y-94973000D01*
X135875282Y-94973000D01*
X135644833Y-95068455D01*
X135468455Y-95244833D01*
X135373000Y-95475282D01*
X135373000Y-95657072D01*
X134957521Y-96072552D01*
X135019038Y-95924036D01*
X135019038Y-95674600D01*
X134923583Y-95444151D01*
X134747205Y-95267773D01*
X134516756Y-95172318D01*
X134267320Y-95172318D01*
X134036871Y-95267773D01*
X133908326Y-95396318D01*
X133727000Y-95396318D01*
X133727000Y-94252750D01*
X136904000Y-94252750D01*
X136904000Y-94393310D01*
X137000673Y-94626699D01*
X137179302Y-94805327D01*
X137412691Y-94902000D01*
X137953250Y-94902000D01*
X138112000Y-94743250D01*
X138112000Y-94094000D01*
X138366000Y-94094000D01*
X138366000Y-94743250D01*
X138524750Y-94902000D01*
X139065309Y-94902000D01*
X139298698Y-94805327D01*
X139477327Y-94626699D01*
X139574000Y-94393310D01*
X139574000Y-94252750D01*
X139415250Y-94094000D01*
X138366000Y-94094000D01*
X138112000Y-94094000D01*
X137062750Y-94094000D01*
X136904000Y-94252750D01*
X133727000Y-94252750D01*
X133727000Y-93527000D01*
X136909671Y-93527000D01*
X136904000Y-93540690D01*
G36*
X128904000Y-93540690D02*
X128904000Y-93681250D01*
X129062750Y-93840000D01*
X130112000Y-93840000D01*
X130112000Y-93820000D01*
X130366000Y-93820000D01*
X130366000Y-93840000D01*
X130386000Y-93840000D01*
X130386000Y-94094000D01*
X130366000Y-94094000D01*
X130366000Y-94114000D01*
X130112000Y-94114000D01*
X130112000Y-94094000D01*
X129062750Y-94094000D01*
X128904000Y-94252750D01*
X128904000Y-94393310D01*
X129000673Y-94626699D01*
X129179302Y-94805327D01*
X129205594Y-94816218D01*
X129205594Y-94967000D01*
X129230973Y-95094589D01*
X129245947Y-95117000D01*
X129230973Y-95139411D01*
X129205594Y-95267000D01*
X129205594Y-95667000D01*
X129230973Y-95794589D01*
X129245947Y-95817000D01*
X129230973Y-95839411D01*
X129205594Y-95967000D01*
X129205594Y-96367000D01*
X129230973Y-96494589D01*
X129245947Y-96517000D01*
X129230973Y-96539411D01*
X129205594Y-96667000D01*
X129205594Y-97067000D01*
X129230973Y-97194589D01*
X129245947Y-97217000D01*
X129230973Y-97239411D01*
X129205594Y-97367000D01*
X129205594Y-97767000D01*
X129224888Y-97864000D01*
X128913929Y-97864000D01*
X127627000Y-96577073D01*
X127627000Y-96395282D01*
X127531545Y-96164833D01*
X127355167Y-95988455D01*
X127124718Y-95893000D01*
X126875282Y-95893000D01*
X126644833Y-95988455D01*
X126468455Y-96164833D01*
X126467837Y-96166325D01*
X126549058Y-95758000D01*
X126457709Y-95298758D01*
X126197569Y-94909431D01*
X125808242Y-94649291D01*
X125703000Y-94628357D01*
X125703000Y-93527000D01*
X128909671Y-93527000D01*
X128904000Y-93540690D01*
X128904000Y-93540690D01*
G37*
X128904000Y-93540690D02*
X128904000Y-93681250D01*
X129062750Y-93840000D01*
X130112000Y-93840000D01*
X130112000Y-93820000D01*
X130366000Y-93820000D01*
X130366000Y-93840000D01*
X130386000Y-93840000D01*
X130386000Y-94094000D01*
X130366000Y-94094000D01*
X130366000Y-94114000D01*
X130112000Y-94114000D01*
X130112000Y-94094000D01*
X129062750Y-94094000D01*
X128904000Y-94252750D01*
X128904000Y-94393310D01*
X129000673Y-94626699D01*
X129179302Y-94805327D01*
X129205594Y-94816218D01*
X129205594Y-94967000D01*
X129230973Y-95094589D01*
X129245947Y-95117000D01*
X129230973Y-95139411D01*
X129205594Y-95267000D01*
X129205594Y-95667000D01*
X129230973Y-95794589D01*
X129245947Y-95817000D01*
X129230973Y-95839411D01*
X129205594Y-95967000D01*
X129205594Y-96367000D01*
X129230973Y-96494589D01*
X129245947Y-96517000D01*
X129230973Y-96539411D01*
X129205594Y-96667000D01*
X129205594Y-97067000D01*
X129230973Y-97194589D01*
X129245947Y-97217000D01*
X129230973Y-97239411D01*
X129205594Y-97367000D01*
X129205594Y-97767000D01*
X129224888Y-97864000D01*
X128913929Y-97864000D01*
X127627000Y-96577073D01*
X127627000Y-96395282D01*
X127531545Y-96164833D01*
X127355167Y-95988455D01*
X127124718Y-95893000D01*
X126875282Y-95893000D01*
X126644833Y-95988455D01*
X126468455Y-96164833D01*
X126467837Y-96166325D01*
X126549058Y-95758000D01*
X126457709Y-95298758D01*
X126197569Y-94909431D01*
X125808242Y-94649291D01*
X125703000Y-94628357D01*
X125703000Y-93527000D01*
X128909671Y-93527000D01*
X128904000Y-93540690D01*
G04 #@! TD*
M02*
