M48
;DRILL file {KiCad (5.0.2)-1} date 2/14/2019 12:18:42 PM
;FORMAT={-:-/ absolute / metric / decimal}
FMAT,2
METRIC,TZ
T1C0.400
T2C1.000
%
G90
G05
T1
X127.Y-96.52
X127.776Y-104.992
X127.889Y-117.094
X128.6Y-94.
X128.905Y-99.695
X129.2Y-104.2
X129.2Y-112.2
X129.413Y-111.125
X130.2Y-109.
X130.4Y-111.
X131.318Y-93.853
X131.435Y-102.361
X131.445Y-98.044
X131.572Y-99.568
X131.6Y-100.6
X131.6Y-101.4
X132.103Y-94.967
X132.173Y-102.214
X132.588Y-94.361
X132.84Y-101.867
X132.969Y-95.123
X133.477Y-97.155
X133.477Y-98.679
X133.8Y-110.4
X134.2Y-105.6
X134.271Y-99.441
X134.392Y-95.799
X135.6Y-94.
X135.763Y-110.617
X135.89Y-113.538
X136.Y-95.6
X136.199Y-102.195
X136.271Y-98.298
X136.4Y-94.
X136.432Y-100.4
X136.597Y-99.139
X136.8Y-102.715
X136.891Y-97.528
X137.Y-99.8
X137.004Y-100.968
X137.668Y-105.41
X139.4Y-104.4
X140.Y-94.
X140.702Y-101.976
X141.4Y-100.2
X141.859Y-107.315
X141.986Y-96.774
X142.Y-101.8
T2
X125.349Y-113.538
X125.349Y-116.078
X143.129Y-113.538
X143.129Y-116.078
X130.429Y-116.522
X132.969Y-116.522
X135.509Y-116.522
X138.049Y-116.522
X143.129Y-95.758
X143.129Y-98.298
X143.129Y-100.838
X143.129Y-103.378
X143.129Y-105.918
X143.129Y-108.458
X143.129Y-110.998
X130.429Y-118.618
X132.969Y-118.618
X135.509Y-118.618
X138.049Y-118.618
X125.349Y-95.758
X125.349Y-98.298
X125.349Y-100.838
X125.349Y-103.378
X125.349Y-105.918
X125.349Y-108.458
X125.349Y-110.998
T0
M30
