G04 #@! TF.GenerationSoftware,KiCad,Pcbnew,(5.0.2)-1*
G04 #@! TF.CreationDate,2019-02-14T12:18:38+05:30*
G04 #@! TF.ProjectId,hackaBLE,6861636b-6142-44c4-952e-6b696361645f,rev?*
G04 #@! TF.SameCoordinates,Original*
G04 #@! TF.FileFunction,Copper,L2,Bot*
G04 #@! TF.FilePolarity,Positive*
%FSLAX46Y46*%
G04 Gerber Fmt 4.6, Leading zero omitted, Abs format (unit mm)*
G04 Created by KiCad (PCBNEW (5.0.2)-1) date 2/14/2019 12:18:38 PM*
%MOMM*%
%LPD*%
G01*
G04 APERTURE LIST*
G04 #@! TA.AperFunction,ComponentPad*
%ADD10C,1.700000*%
G04 #@! TD*
G04 #@! TA.AperFunction,ComponentPad*
%ADD11O,1.700000X1.700000*%
G04 #@! TD*
G04 #@! TA.AperFunction,SMDPad,CuDef*
%ADD12R,1.100000X0.600000*%
G04 #@! TD*
G04 #@! TA.AperFunction,ViaPad*
%ADD13C,0.600000*%
G04 #@! TD*
G04 #@! TA.AperFunction,Conductor*
%ADD14C,0.400000*%
G04 #@! TD*
G04 #@! TA.AperFunction,Conductor*
%ADD15C,0.152000*%
G04 #@! TD*
G04 #@! TA.AperFunction,Conductor*
%ADD16C,0.254000*%
G04 #@! TD*
G04 APERTURE END LIST*
D10*
G04 #@! TO.P,J1,1*
G04 #@! TO.N,Vin*
X143129000Y-113538000D03*
D11*
G04 #@! TO.P,J1,2*
G04 #@! TO.N,GND*
X143129000Y-116078000D03*
G04 #@! TD*
D10*
G04 #@! TO.P,J2,1*
G04 #@! TO.N,NFC1*
X125349000Y-116078000D03*
D11*
G04 #@! TO.P,J2,2*
G04 #@! TO.N,NFC2*
X125349000Y-113538000D03*
G04 #@! TD*
D10*
G04 #@! TO.P,J3,1*
G04 #@! TO.N,SWDCLK*
X130429000Y-118618000D03*
D11*
G04 #@! TO.P,J3,2*
G04 #@! TO.N,SWDIO*
X132969000Y-118618000D03*
G04 #@! TO.P,J3,3*
G04 #@! TO.N,GND*
X135509000Y-118618000D03*
G04 #@! TO.P,J3,4*
G04 #@! TO.N,VDD*
X138049000Y-118618000D03*
G04 #@! TD*
G04 #@! TO.P,J4,7*
G04 #@! TO.N,P0.14*
X125349000Y-95758000D03*
D10*
G04 #@! TO.P,J4,1*
G04 #@! TO.N,P0.06*
X125349000Y-110998000D03*
D11*
G04 #@! TO.P,J4,2*
G04 #@! TO.N,P0.07*
X125349000Y-108458000D03*
G04 #@! TO.P,J4,3*
G04 #@! TO.N,P0.08*
X125349000Y-105918000D03*
G04 #@! TO.P,J4,4*
G04 #@! TO.N,P0.11*
X125349000Y-103378000D03*
G04 #@! TO.P,J4,5*
G04 #@! TO.N,P0.12*
X125349000Y-100838000D03*
G04 #@! TO.P,J4,6*
G04 #@! TO.N,P0.13*
X125349000Y-98298000D03*
G04 #@! TD*
D12*
G04 #@! TO.P,J5,3*
G04 #@! TO.N,P0.18*
X128206500Y-97091500D03*
G04 #@! TO.P,J5,2*
G04 #@! TO.N,P0.16*
X128206500Y-98091500D03*
G04 #@! TO.P,J5,1*
G04 #@! TO.N,P0.15*
X128206500Y-99091500D03*
G04 #@! TO.P,J5,4*
G04 #@! TO.N,P0.22*
X128206500Y-96091500D03*
G04 #@! TO.P,J5,5*
G04 #@! TO.N,P0.23*
X128206500Y-95091500D03*
G04 #@! TD*
D11*
G04 #@! TO.P,J6,7*
G04 #@! TO.N,P0.27*
X143129000Y-95758000D03*
D10*
G04 #@! TO.P,J6,1*
G04 #@! TO.N,VDD*
X143129000Y-110998000D03*
D11*
G04 #@! TO.P,J6,2*
G04 #@! TO.N,P0.03*
X143129000Y-108458000D03*
G04 #@! TO.P,J6,3*
G04 #@! TO.N,P0.04*
X143129000Y-105918000D03*
G04 #@! TO.P,J6,4*
G04 #@! TO.N,P0.05*
X143129000Y-103378000D03*
G04 #@! TO.P,J6,5*
G04 #@! TO.N,P0.25*
X143129000Y-100838000D03*
G04 #@! TO.P,J6,6*
G04 #@! TO.N,P0.26*
X143129000Y-98298000D03*
G04 #@! TD*
D12*
G04 #@! TO.P,J7,3*
G04 #@! TO.N,P0.29*
X140271500Y-97091500D03*
G04 #@! TO.P,J7,2*
G04 #@! TO.N,P0.28*
X140271500Y-96091500D03*
G04 #@! TO.P,J7,1*
G04 #@! TO.N,P0.24*
X140271500Y-95091500D03*
G04 #@! TO.P,J7,4*
G04 #@! TO.N,P0.30*
X140271500Y-98091500D03*
G04 #@! TO.P,J7,5*
G04 #@! TO.N,P0.31*
X140271500Y-99091500D03*
G04 #@! TD*
D10*
G04 #@! TO.P,J8,1*
G04 #@! TO.N,SWDCLK*
X130429000Y-116522500D03*
D11*
G04 #@! TO.P,J8,2*
G04 #@! TO.N,SWDIO*
X132969000Y-116522500D03*
G04 #@! TO.P,J8,3*
G04 #@! TO.N,GND*
X135509000Y-116522500D03*
G04 #@! TO.P,J8,4*
G04 #@! TO.N,VDD*
X138049000Y-116522500D03*
G04 #@! TD*
D13*
G04 #@! TO.N,GND*
X139400000Y-104400000D03*
X136400000Y-94000000D03*
X135600000Y-94000000D03*
X140000000Y-94000000D03*
X128600000Y-94000000D03*
X129200000Y-104200000D03*
X141400000Y-100200000D03*
X142000000Y-101800000D03*
X140702220Y-101976268D03*
X127776010Y-104991544D03*
X131318000Y-93853000D03*
X129413000Y-111125000D03*
X127889000Y-117094000D03*
X141986000Y-96774000D03*
X135890000Y-113538000D03*
X141859000Y-107315000D03*
X135763000Y-110617000D03*
G04 #@! TO.N,VDD*
X133800000Y-110400000D03*
G04 #@! TO.N,SWDIO*
X134392038Y-95799318D03*
G04 #@! TO.N,P0.03*
X137668000Y-105410000D03*
G04 #@! TO.N,P0.04*
X136800000Y-102714998D03*
G04 #@! TO.N,P0.05*
X136199084Y-102194700D03*
G04 #@! TO.N,P0.06*
X132839969Y-101866647D03*
G04 #@! TO.N,P0.07*
X132172979Y-102213988D03*
G04 #@! TO.N,P0.08*
X131435441Y-102360816D03*
G04 #@! TO.N,P0.11*
X131600000Y-101400000D03*
G04 #@! TO.N,P0.14*
X131600000Y-100600000D03*
G04 #@! TO.N,P0.15*
X128905000Y-99695000D03*
G04 #@! TO.N,P0.16*
X131572000Y-99568000D03*
G04 #@! TO.N,P0.18*
X127000000Y-96520000D03*
G04 #@! TO.N,P0.22*
X132103153Y-94967297D03*
G04 #@! TO.N,P0.23*
X132588000Y-94361000D03*
G04 #@! TO.N,P0.24*
X136000000Y-95600000D03*
G04 #@! TO.N,P0.25*
X137000000Y-99800000D03*
G04 #@! TO.N,P0.27*
X136432021Y-100400000D03*
G04 #@! TO.N,P0.28*
X136890507Y-97528010D03*
G04 #@! TO.N,P0.29*
X136271000Y-98298000D03*
G04 #@! TO.N,P0.30*
X136596593Y-99138990D03*
G04 #@! TO.N,P0.31*
X137003917Y-100967979D03*
G04 #@! TO.N,RESET*
X129200000Y-112200000D03*
X133477000Y-97155000D03*
G04 #@! TO.N,RED*
X134200000Y-105600000D03*
X134271254Y-99441000D03*
G04 #@! TO.N,GREEN*
X130200000Y-109000000D03*
X131445000Y-98044000D03*
G04 #@! TO.N,BLUE*
X133477000Y-98679000D03*
X130400000Y-111000000D03*
G04 #@! TO.N,SWDCLK*
X132969000Y-95123000D03*
G04 #@! TD*
D14*
G04 #@! TO.N,GND*
X136400000Y-94000000D02*
X135600000Y-94000000D01*
X135509000Y-116522500D02*
X135509000Y-118142990D01*
X141400000Y-99896583D02*
X141800000Y-99496583D01*
X141400000Y-100200000D02*
X141400000Y-99896583D01*
X129413000Y-111125000D02*
X128524000Y-111125000D01*
X128524000Y-111125000D02*
X127889000Y-111760000D01*
X127889000Y-111760000D02*
X127889000Y-117094000D01*
X141800000Y-96960000D02*
X141986000Y-96774000D01*
X141800000Y-98806000D02*
X141800000Y-96960000D01*
X141800000Y-99496583D02*
X141800000Y-98806000D01*
X135509000Y-116522500D02*
X135509000Y-113919000D01*
X135509000Y-113919000D02*
X135890000Y-113538000D01*
G04 #@! TO.N,VDD*
X138049000Y-116522500D02*
X138049000Y-118142990D01*
X133800000Y-110400000D02*
X138049000Y-114649000D01*
X138049000Y-115320419D02*
X138049000Y-116522500D01*
X138049000Y-114649000D02*
X138049000Y-115320419D01*
X138049000Y-116522500D02*
X140271500Y-116522500D01*
X140271500Y-116522500D02*
X141097000Y-115697000D01*
X141097000Y-114554000D02*
X141097000Y-111506000D01*
X141097000Y-115697000D02*
X141097000Y-114554000D01*
X141605000Y-110998000D02*
X142653990Y-110998000D01*
X141097000Y-111506000D02*
X141605000Y-110998000D01*
D15*
G04 #@! TO.N,SWDIO*
X132969000Y-117724581D02*
X132969000Y-118314990D01*
X132969000Y-116522500D02*
X132969000Y-117724581D01*
X135600000Y-106200000D02*
X135600000Y-97007280D01*
X132969000Y-116522500D02*
X132969000Y-108831000D01*
X135600000Y-97007280D02*
X134392038Y-95799318D01*
X132969000Y-108831000D02*
X135600000Y-106200000D01*
G04 #@! TO.N,P0.03*
X137967999Y-105709999D02*
X140716000Y-108458000D01*
X137668000Y-105410000D02*
X137967999Y-105709999D01*
X142825990Y-108458000D02*
X140716000Y-108458000D01*
G04 #@! TO.N,P0.04*
X142518000Y-105918000D02*
X142825990Y-105918000D01*
X139314998Y-102714998D02*
X142518000Y-105918000D01*
X136800000Y-102714998D02*
X139314998Y-102714998D01*
G04 #@! TO.N,P0.05*
X142825990Y-103378000D02*
X140807987Y-103378000D01*
X140807987Y-103378000D02*
X139616984Y-102186997D01*
X139616984Y-102186997D02*
X136631051Y-102186997D01*
X136623348Y-102194700D02*
X136199084Y-102194700D01*
X136631051Y-102186997D02*
X136623348Y-102194700D01*
G04 #@! TO.N,P0.06*
X127200000Y-109147000D02*
X125652010Y-110694990D01*
X127200000Y-104600000D02*
X127200000Y-109147000D01*
X128200000Y-103600000D02*
X127200000Y-104600000D01*
X131800000Y-103600000D02*
X128200000Y-103600000D01*
X132839969Y-102560031D02*
X131800000Y-103600000D01*
X132839969Y-101866647D02*
X132839969Y-102560031D01*
G04 #@! TO.N,P0.07*
X131811231Y-103000000D02*
X132172979Y-102638252D01*
X125652010Y-108154990D02*
X126800000Y-107007000D01*
X126800000Y-107007000D02*
X126800000Y-104400000D01*
X126800000Y-104400000D02*
X128200000Y-103000000D01*
X128200000Y-103000000D02*
X131811231Y-103000000D01*
X132172979Y-102638252D02*
X132172979Y-102213988D01*
G04 #@! TO.N,P0.08*
X128209248Y-102360816D02*
X131011177Y-102360816D01*
X131011177Y-102360816D02*
X131435441Y-102360816D01*
X125652010Y-104918054D02*
X128209248Y-102360816D01*
X125652010Y-105614990D02*
X125652010Y-104918054D01*
G04 #@! TO.N,P0.11*
X131600000Y-101400000D02*
X127327000Y-101400000D01*
X127327000Y-101400000D02*
X125652010Y-103074990D01*
G04 #@! TO.N,P0.14*
X125652010Y-96061010D02*
X126600000Y-97009000D01*
X126600000Y-97009000D02*
X126600000Y-99800000D01*
X127400000Y-100600000D02*
X127200000Y-100400000D01*
X131600000Y-100600000D02*
X127400000Y-100600000D01*
X126600000Y-99800000D02*
X127200000Y-100400000D01*
G04 #@! TO.N,P0.15*
X128810000Y-99695000D02*
X128206500Y-99091500D01*
X128905000Y-99695000D02*
X128810000Y-99695000D01*
G04 #@! TO.N,P0.16*
X130095500Y-98091500D02*
X131572000Y-99568000D01*
X128206500Y-98091500D02*
X130095500Y-98091500D01*
G04 #@! TO.N,P0.18*
X127571500Y-97091500D02*
X128206500Y-97091500D01*
X127000000Y-96520000D02*
X127571500Y-97091500D01*
G04 #@! TO.N,P0.22*
X128206500Y-96091500D02*
X130978950Y-96091500D01*
X130978950Y-96091500D02*
X131803154Y-95267296D01*
X131803154Y-95267296D02*
X132103153Y-94967297D01*
G04 #@! TO.N,P0.23*
X131826000Y-94361000D02*
X131095500Y-95091500D01*
X131095500Y-95091500D02*
X128206500Y-95091500D01*
X132588000Y-94361000D02*
X131826000Y-94361000D01*
G04 #@! TO.N,P0.24*
X136508500Y-95091500D02*
X140271500Y-95091500D01*
X136000000Y-95600000D02*
X136508500Y-95091500D01*
G04 #@! TO.N,P0.25*
X138200000Y-101800000D02*
X138400001Y-101800000D01*
X138200000Y-101800000D02*
X138684000Y-101800000D01*
X140589000Y-100838000D02*
X142825990Y-100838000D01*
X136200000Y-99800000D02*
X135904011Y-100095989D01*
X135904011Y-101122569D02*
X136581442Y-101800000D01*
X137000000Y-99800000D02*
X136200000Y-99800000D01*
X136581442Y-101800000D02*
X138200000Y-101800000D01*
X135904011Y-100095989D02*
X135904011Y-101122569D01*
X138684000Y-101800000D02*
X139627000Y-101800000D01*
X139627000Y-101800000D02*
X140589000Y-100838000D01*
G04 #@! TO.N,P0.27*
X140423402Y-100200000D02*
X141323989Y-99299413D01*
X136725925Y-101495989D02*
X137541000Y-101495989D01*
X136432021Y-101202085D02*
X136725925Y-101495989D01*
X136432021Y-100400000D02*
X136432021Y-101202085D01*
X137541000Y-101495989D02*
X139127413Y-101495989D01*
X139127413Y-101495989D02*
X140423402Y-100200000D01*
X141323989Y-99299413D02*
X141323989Y-97536000D01*
X141323989Y-97023527D02*
X141323989Y-97536000D01*
X141732000Y-95758000D02*
X142589516Y-95758000D01*
X141323989Y-97536000D02*
X141323989Y-96166011D01*
X141323989Y-96166011D02*
X141732000Y-95758000D01*
G04 #@! TO.N,P0.28*
X138327017Y-96091500D02*
X137190506Y-97228011D01*
X137190506Y-97228011D02*
X136890507Y-97528010D01*
X140271500Y-96091500D02*
X138327017Y-96091500D01*
G04 #@! TO.N,P0.29*
X140271500Y-97091500D02*
X138108459Y-97091500D01*
X136901959Y-98298000D02*
X137033000Y-98166959D01*
X136271000Y-98298000D02*
X136901959Y-98298000D01*
X138108459Y-97091500D02*
X137033000Y-98166959D01*
G04 #@! TO.N,P0.30*
X140271500Y-98091500D02*
X137644083Y-98091500D01*
X137644083Y-98091500D02*
X136596593Y-99138990D01*
G04 #@! TO.N,P0.31*
X137003917Y-100967979D02*
X139062021Y-100967979D01*
X140271500Y-99758500D02*
X140271500Y-99091500D01*
X139062021Y-100967979D02*
X140271500Y-99758500D01*
G04 #@! TO.N,RESET*
X130400000Y-112200000D02*
X129200000Y-112200000D01*
X130967000Y-111633000D02*
X130400000Y-112200000D01*
X133477000Y-97155000D02*
X134800000Y-98478000D01*
X134800000Y-98478000D02*
X134800000Y-102991979D01*
X134800000Y-102991979D02*
X134791979Y-103000000D01*
X134791979Y-103000000D02*
X134791979Y-106000021D01*
X134791979Y-106000021D02*
X130967000Y-109825000D01*
X130967000Y-109825000D02*
X130967000Y-111633000D01*
G04 #@! TO.N,RED*
X134271254Y-105528746D02*
X134200000Y-105600000D01*
X134271254Y-99441000D02*
X134271254Y-105528746D01*
G04 #@! TO.N,GREEN*
X133367979Y-99966979D02*
X131445000Y-98044000D01*
X133367979Y-105832021D02*
X133367979Y-99966979D01*
X130200000Y-109000000D02*
X133367979Y-105832021D01*
G04 #@! TO.N,BLUE*
X130400000Y-109757000D02*
X130400000Y-111000000D01*
X133671989Y-106485011D02*
X130400000Y-109757000D01*
X133671989Y-99822000D02*
X133671989Y-106485011D01*
X133477000Y-98679000D02*
X133477000Y-99627011D01*
X133477000Y-99627011D02*
X133671989Y-99822000D01*
G04 #@! TO.N,SWDCLK*
X130429000Y-116522500D02*
X130429000Y-118314990D01*
X135200000Y-97354000D02*
X135200000Y-106170076D01*
X132969000Y-95123000D02*
X135200000Y-97354000D01*
X132531076Y-114420424D02*
X130429000Y-116522500D01*
X132531076Y-108839000D02*
X132531076Y-114420424D01*
X135200000Y-106170076D02*
X132531076Y-108839000D01*
G04 #@! TD*
D16*
G04 #@! TO.N,GND*
G36*
X133444833Y-110931545D02*
X133675282Y-111027000D01*
X133681710Y-111027000D01*
X137522000Y-114867290D01*
X137522000Y-115459065D01*
X137200431Y-115673931D01*
X136940291Y-116063258D01*
X136929023Y-116119906D01*
X136704183Y-115641142D01*
X136275924Y-115250855D01*
X135865890Y-115081024D01*
X135636000Y-115202345D01*
X135636000Y-116395500D01*
X135656000Y-116395500D01*
X135656000Y-116649500D01*
X135636000Y-116649500D01*
X135636000Y-118264000D01*
X135382000Y-118264000D01*
X135382000Y-116649500D01*
X135362000Y-116649500D01*
X135362000Y-116395500D01*
X135382000Y-116395500D01*
X135382000Y-115202345D01*
X135152110Y-115081024D01*
X134742076Y-115250855D01*
X134313817Y-115641142D01*
X134088977Y-116119906D01*
X134077709Y-116063258D01*
X133817569Y-115673931D01*
X133428242Y-115413791D01*
X133372000Y-115402604D01*
X133372000Y-110858712D01*
X133444833Y-110931545D01*
X133444833Y-110931545D01*
G37*
X133444833Y-110931545D02*
X133675282Y-111027000D01*
X133681710Y-111027000D01*
X137522000Y-114867290D01*
X137522000Y-115459065D01*
X137200431Y-115673931D01*
X136940291Y-116063258D01*
X136929023Y-116119906D01*
X136704183Y-115641142D01*
X136275924Y-115250855D01*
X135865890Y-115081024D01*
X135636000Y-115202345D01*
X135636000Y-116395500D01*
X135656000Y-116395500D01*
X135656000Y-116649500D01*
X135636000Y-116649500D01*
X135636000Y-118264000D01*
X135382000Y-118264000D01*
X135382000Y-116649500D01*
X135362000Y-116649500D01*
X135362000Y-116395500D01*
X135382000Y-116395500D01*
X135382000Y-115202345D01*
X135152110Y-115081024D01*
X134742076Y-115250855D01*
X134313817Y-115641142D01*
X134088977Y-116119906D01*
X134077709Y-116063258D01*
X133817569Y-115673931D01*
X133428242Y-115413791D01*
X133372000Y-115402604D01*
X133372000Y-110858712D01*
X133444833Y-110931545D01*
G36*
X132964979Y-105665093D02*
X130257073Y-108373000D01*
X130075282Y-108373000D01*
X129844833Y-108468455D01*
X129668455Y-108644833D01*
X129573000Y-108875282D01*
X129573000Y-109124718D01*
X129668455Y-109355167D01*
X129844833Y-109531545D01*
X130019556Y-109603917D01*
X129989105Y-109757000D01*
X129997000Y-109796690D01*
X129997001Y-110516287D01*
X129868455Y-110644833D01*
X129773000Y-110875282D01*
X129773000Y-111124718D01*
X129868455Y-111355167D01*
X130044833Y-111531545D01*
X130275282Y-111627000D01*
X130403072Y-111627000D01*
X130233073Y-111797000D01*
X129683712Y-111797000D01*
X129555167Y-111668455D01*
X129324718Y-111573000D01*
X129075282Y-111573000D01*
X128844833Y-111668455D01*
X128668455Y-111844833D01*
X128573000Y-112075282D01*
X128573000Y-112324718D01*
X128668455Y-112555167D01*
X128844833Y-112731545D01*
X129075282Y-112827000D01*
X129324718Y-112827000D01*
X129555167Y-112731545D01*
X129683712Y-112603000D01*
X130360310Y-112603000D01*
X130400000Y-112610895D01*
X130439690Y-112603000D01*
X130557243Y-112579617D01*
X130690547Y-112490547D01*
X130713033Y-112456895D01*
X131223900Y-111946029D01*
X131257547Y-111923547D01*
X131346617Y-111790243D01*
X131370000Y-111672690D01*
X131377895Y-111633001D01*
X131370000Y-111593311D01*
X131370000Y-109991927D01*
X132128076Y-109233851D01*
X132128077Y-114253495D01*
X130926838Y-115454735D01*
X130663120Y-115345500D01*
X130194880Y-115345500D01*
X129762283Y-115524687D01*
X129431187Y-115855783D01*
X129252000Y-116288380D01*
X129252000Y-116756620D01*
X129431187Y-117189217D01*
X129762283Y-117520313D01*
X129882842Y-117570250D01*
X129762283Y-117620187D01*
X129431187Y-117951283D01*
X129301656Y-118264000D01*
X126649971Y-118264000D01*
X126307579Y-118203627D01*
X126033717Y-118045512D01*
X125830450Y-117803268D01*
X125716885Y-117491253D01*
X125703000Y-117332543D01*
X125703000Y-117205344D01*
X126015717Y-117075813D01*
X126346813Y-116744717D01*
X126526000Y-116312120D01*
X126526000Y-115843880D01*
X126346813Y-115411283D01*
X126015717Y-115080187D01*
X125703000Y-114950656D01*
X125703000Y-114667643D01*
X125808242Y-114646709D01*
X126197569Y-114386569D01*
X126457709Y-113997242D01*
X126549058Y-113538000D01*
X126457709Y-113078758D01*
X126197569Y-112689431D01*
X125808242Y-112429291D01*
X125703000Y-112408357D01*
X125703000Y-112125344D01*
X126015717Y-111995813D01*
X126346813Y-111664717D01*
X126526000Y-111232120D01*
X126526000Y-110763880D01*
X126416765Y-110500162D01*
X127456897Y-109460031D01*
X127490547Y-109437547D01*
X127579617Y-109304243D01*
X127603000Y-109186690D01*
X127610895Y-109147001D01*
X127603000Y-109107311D01*
X127603000Y-104766927D01*
X128366928Y-104003000D01*
X131760310Y-104003000D01*
X131800000Y-104010895D01*
X131839690Y-104003000D01*
X131957243Y-103979617D01*
X132090547Y-103890547D01*
X132113033Y-103856894D01*
X132964979Y-103004948D01*
X132964979Y-105665093D01*
X132964979Y-105665093D01*
G37*
X132964979Y-105665093D02*
X130257073Y-108373000D01*
X130075282Y-108373000D01*
X129844833Y-108468455D01*
X129668455Y-108644833D01*
X129573000Y-108875282D01*
X129573000Y-109124718D01*
X129668455Y-109355167D01*
X129844833Y-109531545D01*
X130019556Y-109603917D01*
X129989105Y-109757000D01*
X129997000Y-109796690D01*
X129997001Y-110516287D01*
X129868455Y-110644833D01*
X129773000Y-110875282D01*
X129773000Y-111124718D01*
X129868455Y-111355167D01*
X130044833Y-111531545D01*
X130275282Y-111627000D01*
X130403072Y-111627000D01*
X130233073Y-111797000D01*
X129683712Y-111797000D01*
X129555167Y-111668455D01*
X129324718Y-111573000D01*
X129075282Y-111573000D01*
X128844833Y-111668455D01*
X128668455Y-111844833D01*
X128573000Y-112075282D01*
X128573000Y-112324718D01*
X128668455Y-112555167D01*
X128844833Y-112731545D01*
X129075282Y-112827000D01*
X129324718Y-112827000D01*
X129555167Y-112731545D01*
X129683712Y-112603000D01*
X130360310Y-112603000D01*
X130400000Y-112610895D01*
X130439690Y-112603000D01*
X130557243Y-112579617D01*
X130690547Y-112490547D01*
X130713033Y-112456895D01*
X131223900Y-111946029D01*
X131257547Y-111923547D01*
X131346617Y-111790243D01*
X131370000Y-111672690D01*
X131377895Y-111633001D01*
X131370000Y-111593311D01*
X131370000Y-109991927D01*
X132128076Y-109233851D01*
X132128077Y-114253495D01*
X130926838Y-115454735D01*
X130663120Y-115345500D01*
X130194880Y-115345500D01*
X129762283Y-115524687D01*
X129431187Y-115855783D01*
X129252000Y-116288380D01*
X129252000Y-116756620D01*
X129431187Y-117189217D01*
X129762283Y-117520313D01*
X129882842Y-117570250D01*
X129762283Y-117620187D01*
X129431187Y-117951283D01*
X129301656Y-118264000D01*
X126649971Y-118264000D01*
X126307579Y-118203627D01*
X126033717Y-118045512D01*
X125830450Y-117803268D01*
X125716885Y-117491253D01*
X125703000Y-117332543D01*
X125703000Y-117205344D01*
X126015717Y-117075813D01*
X126346813Y-116744717D01*
X126526000Y-116312120D01*
X126526000Y-115843880D01*
X126346813Y-115411283D01*
X126015717Y-115080187D01*
X125703000Y-114950656D01*
X125703000Y-114667643D01*
X125808242Y-114646709D01*
X126197569Y-114386569D01*
X126457709Y-113997242D01*
X126549058Y-113538000D01*
X126457709Y-113078758D01*
X126197569Y-112689431D01*
X125808242Y-112429291D01*
X125703000Y-112408357D01*
X125703000Y-112125344D01*
X126015717Y-111995813D01*
X126346813Y-111664717D01*
X126526000Y-111232120D01*
X126526000Y-110763880D01*
X126416765Y-110500162D01*
X127456897Y-109460031D01*
X127490547Y-109437547D01*
X127579617Y-109304243D01*
X127603000Y-109186690D01*
X127610895Y-109147001D01*
X127603000Y-109107311D01*
X127603000Y-104766927D01*
X128366928Y-104003000D01*
X131760310Y-104003000D01*
X131800000Y-104010895D01*
X131839690Y-104003000D01*
X131957243Y-103979617D01*
X132090547Y-103890547D01*
X132113033Y-103856894D01*
X132964979Y-103004948D01*
X132964979Y-105665093D01*
G36*
X136074366Y-102821700D02*
X136173000Y-102821700D01*
X136173000Y-102839716D01*
X136268455Y-103070165D01*
X136444833Y-103246543D01*
X136675282Y-103341998D01*
X136924718Y-103341998D01*
X137155167Y-103246543D01*
X137283712Y-103117998D01*
X139148071Y-103117998D01*
X141932116Y-105902044D01*
X141928942Y-105918000D01*
X142020291Y-106377242D01*
X142280431Y-106766569D01*
X142669758Y-107026709D01*
X142775001Y-107047643D01*
X142775001Y-107328357D01*
X142669758Y-107349291D01*
X142280431Y-107609431D01*
X142020291Y-107998758D01*
X142009104Y-108055000D01*
X140882928Y-108055000D01*
X138295000Y-105467073D01*
X138295000Y-105285282D01*
X138199545Y-105054833D01*
X138023167Y-104878455D01*
X137792718Y-104783000D01*
X137543282Y-104783000D01*
X137312833Y-104878455D01*
X137136455Y-105054833D01*
X137041000Y-105285282D01*
X137041000Y-105534718D01*
X137136455Y-105765167D01*
X137312833Y-105941545D01*
X137543282Y-106037000D01*
X137725073Y-106037000D01*
X140402969Y-108714897D01*
X140425453Y-108748547D01*
X140548854Y-108831000D01*
X140558757Y-108837617D01*
X140715999Y-108868895D01*
X140755689Y-108861000D01*
X142009104Y-108861000D01*
X142020291Y-108917242D01*
X142280431Y-109306569D01*
X142669758Y-109566709D01*
X142775001Y-109587643D01*
X142775001Y-109870655D01*
X142462283Y-110000187D01*
X142131187Y-110331283D01*
X142073314Y-110471000D01*
X141656897Y-110471000D01*
X141604999Y-110460677D01*
X141553101Y-110471000D01*
X141553097Y-110471000D01*
X141399375Y-110501577D01*
X141225055Y-110618055D01*
X141195655Y-110662055D01*
X140761053Y-111096657D01*
X140717056Y-111126055D01*
X140687658Y-111170052D01*
X140687654Y-111170056D01*
X140631977Y-111253383D01*
X140600578Y-111300375D01*
X140585149Y-111377945D01*
X140559677Y-111506000D01*
X140570001Y-111557903D01*
X140570000Y-114605902D01*
X140570001Y-114605907D01*
X140570000Y-115478709D01*
X140053210Y-115995500D01*
X139112435Y-115995500D01*
X138897569Y-115673931D01*
X138576000Y-115459065D01*
X138576000Y-114700897D01*
X138586323Y-114648999D01*
X138576000Y-114597101D01*
X138576000Y-114597097D01*
X138545423Y-114443375D01*
X138428945Y-114269055D01*
X138384945Y-114239655D01*
X134427000Y-110281710D01*
X134427000Y-110275282D01*
X134331545Y-110044833D01*
X134155167Y-109868455D01*
X133924718Y-109773000D01*
X133675282Y-109773000D01*
X133444833Y-109868455D01*
X133372000Y-109941288D01*
X133372000Y-108997927D01*
X135856897Y-106513030D01*
X135890547Y-106490547D01*
X135979617Y-106357243D01*
X135986826Y-106321000D01*
X136010895Y-106200000D01*
X136003000Y-106160310D01*
X136003000Y-102792139D01*
X136074366Y-102821700D01*
X136074366Y-102821700D01*
G37*
X136074366Y-102821700D02*
X136173000Y-102821700D01*
X136173000Y-102839716D01*
X136268455Y-103070165D01*
X136444833Y-103246543D01*
X136675282Y-103341998D01*
X136924718Y-103341998D01*
X137155167Y-103246543D01*
X137283712Y-103117998D01*
X139148071Y-103117998D01*
X141932116Y-105902044D01*
X141928942Y-105918000D01*
X142020291Y-106377242D01*
X142280431Y-106766569D01*
X142669758Y-107026709D01*
X142775001Y-107047643D01*
X142775001Y-107328357D01*
X142669758Y-107349291D01*
X142280431Y-107609431D01*
X142020291Y-107998758D01*
X142009104Y-108055000D01*
X140882928Y-108055000D01*
X138295000Y-105467073D01*
X138295000Y-105285282D01*
X138199545Y-105054833D01*
X138023167Y-104878455D01*
X137792718Y-104783000D01*
X137543282Y-104783000D01*
X137312833Y-104878455D01*
X137136455Y-105054833D01*
X137041000Y-105285282D01*
X137041000Y-105534718D01*
X137136455Y-105765167D01*
X137312833Y-105941545D01*
X137543282Y-106037000D01*
X137725073Y-106037000D01*
X140402969Y-108714897D01*
X140425453Y-108748547D01*
X140548854Y-108831000D01*
X140558757Y-108837617D01*
X140715999Y-108868895D01*
X140755689Y-108861000D01*
X142009104Y-108861000D01*
X142020291Y-108917242D01*
X142280431Y-109306569D01*
X142669758Y-109566709D01*
X142775001Y-109587643D01*
X142775001Y-109870655D01*
X142462283Y-110000187D01*
X142131187Y-110331283D01*
X142073314Y-110471000D01*
X141656897Y-110471000D01*
X141604999Y-110460677D01*
X141553101Y-110471000D01*
X141553097Y-110471000D01*
X141399375Y-110501577D01*
X141225055Y-110618055D01*
X141195655Y-110662055D01*
X140761053Y-111096657D01*
X140717056Y-111126055D01*
X140687658Y-111170052D01*
X140687654Y-111170056D01*
X140631977Y-111253383D01*
X140600578Y-111300375D01*
X140585149Y-111377945D01*
X140559677Y-111506000D01*
X140570001Y-111557903D01*
X140570000Y-114605902D01*
X140570001Y-114605907D01*
X140570000Y-115478709D01*
X140053210Y-115995500D01*
X139112435Y-115995500D01*
X138897569Y-115673931D01*
X138576000Y-115459065D01*
X138576000Y-114700897D01*
X138586323Y-114648999D01*
X138576000Y-114597101D01*
X138576000Y-114597097D01*
X138545423Y-114443375D01*
X138428945Y-114269055D01*
X138384945Y-114239655D01*
X134427000Y-110281710D01*
X134427000Y-110275282D01*
X134331545Y-110044833D01*
X134155167Y-109868455D01*
X133924718Y-109773000D01*
X133675282Y-109773000D01*
X133444833Y-109868455D01*
X133372000Y-109941288D01*
X133372000Y-108997927D01*
X135856897Y-106513030D01*
X135890547Y-106490547D01*
X135979617Y-106357243D01*
X135986826Y-106321000D01*
X136010895Y-106200000D01*
X136003000Y-106160310D01*
X136003000Y-102792139D01*
X136074366Y-102821700D01*
G36*
X142020291Y-101297242D02*
X142280431Y-101686569D01*
X142669758Y-101946709D01*
X142775000Y-101967643D01*
X142775000Y-102248357D01*
X142669758Y-102269291D01*
X142280431Y-102529431D01*
X142020291Y-102918758D01*
X142009104Y-102975000D01*
X140974915Y-102975000D01*
X139998421Y-101998507D01*
X140755928Y-101241000D01*
X142009104Y-101241000D01*
X142020291Y-101297242D01*
X142020291Y-101297242D01*
G37*
X142020291Y-101297242D02*
X142280431Y-101686569D01*
X142669758Y-101946709D01*
X142775000Y-101967643D01*
X142775000Y-102248357D01*
X142669758Y-102269291D01*
X142280431Y-102529431D01*
X142020291Y-102918758D01*
X142009104Y-102975000D01*
X140974915Y-102975000D01*
X139998421Y-101998507D01*
X140755928Y-101241000D01*
X142009104Y-101241000D01*
X142020291Y-101297242D01*
G36*
X142020291Y-96217242D02*
X142280431Y-96606569D01*
X142669758Y-96866709D01*
X142775000Y-96887643D01*
X142775000Y-97168357D01*
X142669758Y-97189291D01*
X142280431Y-97449431D01*
X142020291Y-97838758D01*
X141928942Y-98298000D01*
X142020291Y-98757242D01*
X142280431Y-99146569D01*
X142669758Y-99406709D01*
X142775000Y-99427643D01*
X142775000Y-99708357D01*
X142669758Y-99729291D01*
X142280431Y-99989431D01*
X142020291Y-100378758D01*
X142009104Y-100435000D01*
X140758329Y-100435000D01*
X141580886Y-99612444D01*
X141614536Y-99589960D01*
X141703606Y-99456656D01*
X141714615Y-99401310D01*
X141734884Y-99299414D01*
X141726989Y-99259724D01*
X141726989Y-96332938D01*
X141898928Y-96161000D01*
X142009104Y-96161000D01*
X142020291Y-96217242D01*
X142020291Y-96217242D01*
G37*
X142020291Y-96217242D02*
X142280431Y-96606569D01*
X142669758Y-96866709D01*
X142775000Y-96887643D01*
X142775000Y-97168357D01*
X142669758Y-97189291D01*
X142280431Y-97449431D01*
X142020291Y-97838758D01*
X141928942Y-98298000D01*
X142020291Y-98757242D01*
X142280431Y-99146569D01*
X142669758Y-99406709D01*
X142775000Y-99427643D01*
X142775000Y-99708357D01*
X142669758Y-99729291D01*
X142280431Y-99989431D01*
X142020291Y-100378758D01*
X142009104Y-100435000D01*
X140758329Y-100435000D01*
X141580886Y-99612444D01*
X141614536Y-99589960D01*
X141703606Y-99456656D01*
X141714615Y-99401310D01*
X141734884Y-99299414D01*
X141726989Y-99259724D01*
X141726989Y-96332938D01*
X141898928Y-96161000D01*
X142009104Y-96161000D01*
X142020291Y-96217242D01*
G36*
X142775000Y-94628357D02*
X142669758Y-94649291D01*
X142280431Y-94909431D01*
X142020291Y-95298758D01*
X142009104Y-95355000D01*
X141771690Y-95355000D01*
X141732000Y-95347105D01*
X141692310Y-95355000D01*
X141574757Y-95378383D01*
X141441453Y-95467453D01*
X141418969Y-95501103D01*
X141150537Y-95769536D01*
X141129527Y-95663911D01*
X141081144Y-95591500D01*
X141129527Y-95519089D01*
X141154906Y-95391500D01*
X141154906Y-94791500D01*
X141129527Y-94663911D01*
X141057254Y-94555746D01*
X140949089Y-94483473D01*
X140821500Y-94458094D01*
X139721500Y-94458094D01*
X139593911Y-94483473D01*
X139485746Y-94555746D01*
X139413473Y-94663911D01*
X139408582Y-94688500D01*
X136548190Y-94688500D01*
X136508500Y-94680605D01*
X136468810Y-94688500D01*
X136351257Y-94711883D01*
X136217953Y-94800953D01*
X136195470Y-94834602D01*
X136057072Y-94973000D01*
X135875282Y-94973000D01*
X135644833Y-95068455D01*
X135468455Y-95244833D01*
X135373000Y-95475282D01*
X135373000Y-95724718D01*
X135468455Y-95955167D01*
X135644833Y-96131545D01*
X135875282Y-96227000D01*
X136124718Y-96227000D01*
X136355167Y-96131545D01*
X136531545Y-95955167D01*
X136627000Y-95724718D01*
X136627000Y-95542928D01*
X136675428Y-95494500D01*
X139408582Y-95494500D01*
X139413473Y-95519089D01*
X139461856Y-95591500D01*
X139413473Y-95663911D01*
X139408582Y-95688500D01*
X138366706Y-95688500D01*
X138327016Y-95680605D01*
X138231891Y-95699527D01*
X138169774Y-95711883D01*
X138036470Y-95800953D01*
X138013987Y-95834602D01*
X136947580Y-96901010D01*
X136765789Y-96901010D01*
X136535340Y-96996465D01*
X136358962Y-97172843D01*
X136263507Y-97403292D01*
X136263507Y-97652728D01*
X136271076Y-97671000D01*
X136146282Y-97671000D01*
X136003000Y-97730349D01*
X136003000Y-97046969D01*
X136010895Y-97007279D01*
X135979617Y-96850037D01*
X135978519Y-96848394D01*
X135890547Y-96716733D01*
X135856897Y-96694249D01*
X135019038Y-95856391D01*
X135019038Y-95674600D01*
X134923583Y-95444151D01*
X134747205Y-95267773D01*
X134516756Y-95172318D01*
X134267320Y-95172318D01*
X134036871Y-95267773D01*
X133860493Y-95444151D01*
X133860372Y-95444444D01*
X133596000Y-95180073D01*
X133596000Y-94998282D01*
X133500545Y-94767833D01*
X133324167Y-94591455D01*
X133193603Y-94537374D01*
X133215000Y-94485718D01*
X133215000Y-94236282D01*
X133119545Y-94005833D01*
X132943167Y-93829455D01*
X132712718Y-93734000D01*
X132463282Y-93734000D01*
X132232833Y-93829455D01*
X132104288Y-93958000D01*
X131865689Y-93958000D01*
X131825999Y-93950105D01*
X131668757Y-93981383D01*
X131535453Y-94070453D01*
X131512969Y-94104103D01*
X130928573Y-94688500D01*
X129069418Y-94688500D01*
X129064527Y-94663911D01*
X128992254Y-94555746D01*
X128884089Y-94483473D01*
X128756500Y-94458094D01*
X127656500Y-94458094D01*
X127528911Y-94483473D01*
X127420746Y-94555746D01*
X127348473Y-94663911D01*
X127323094Y-94791500D01*
X127323094Y-95391500D01*
X127348473Y-95519089D01*
X127396856Y-95591500D01*
X127348473Y-95663911D01*
X127323094Y-95791500D01*
X127323094Y-95975170D01*
X127124718Y-95893000D01*
X126875282Y-95893000D01*
X126644833Y-95988455D01*
X126468455Y-96164833D01*
X126467837Y-96166325D01*
X126549058Y-95758000D01*
X126457709Y-95298758D01*
X126197569Y-94909431D01*
X125808242Y-94649291D01*
X125703000Y-94628357D01*
X125703000Y-93527000D01*
X142775000Y-93527000D01*
X142775000Y-94628357D01*
X142775000Y-94628357D01*
G37*
X142775000Y-94628357D02*
X142669758Y-94649291D01*
X142280431Y-94909431D01*
X142020291Y-95298758D01*
X142009104Y-95355000D01*
X141771690Y-95355000D01*
X141732000Y-95347105D01*
X141692310Y-95355000D01*
X141574757Y-95378383D01*
X141441453Y-95467453D01*
X141418969Y-95501103D01*
X141150537Y-95769536D01*
X141129527Y-95663911D01*
X141081144Y-95591500D01*
X141129527Y-95519089D01*
X141154906Y-95391500D01*
X141154906Y-94791500D01*
X141129527Y-94663911D01*
X141057254Y-94555746D01*
X140949089Y-94483473D01*
X140821500Y-94458094D01*
X139721500Y-94458094D01*
X139593911Y-94483473D01*
X139485746Y-94555746D01*
X139413473Y-94663911D01*
X139408582Y-94688500D01*
X136548190Y-94688500D01*
X136508500Y-94680605D01*
X136468810Y-94688500D01*
X136351257Y-94711883D01*
X136217953Y-94800953D01*
X136195470Y-94834602D01*
X136057072Y-94973000D01*
X135875282Y-94973000D01*
X135644833Y-95068455D01*
X135468455Y-95244833D01*
X135373000Y-95475282D01*
X135373000Y-95724718D01*
X135468455Y-95955167D01*
X135644833Y-96131545D01*
X135875282Y-96227000D01*
X136124718Y-96227000D01*
X136355167Y-96131545D01*
X136531545Y-95955167D01*
X136627000Y-95724718D01*
X136627000Y-95542928D01*
X136675428Y-95494500D01*
X139408582Y-95494500D01*
X139413473Y-95519089D01*
X139461856Y-95591500D01*
X139413473Y-95663911D01*
X139408582Y-95688500D01*
X138366706Y-95688500D01*
X138327016Y-95680605D01*
X138231891Y-95699527D01*
X138169774Y-95711883D01*
X138036470Y-95800953D01*
X138013987Y-95834602D01*
X136947580Y-96901010D01*
X136765789Y-96901010D01*
X136535340Y-96996465D01*
X136358962Y-97172843D01*
X136263507Y-97403292D01*
X136263507Y-97652728D01*
X136271076Y-97671000D01*
X136146282Y-97671000D01*
X136003000Y-97730349D01*
X136003000Y-97046969D01*
X136010895Y-97007279D01*
X135979617Y-96850037D01*
X135978519Y-96848394D01*
X135890547Y-96716733D01*
X135856897Y-96694249D01*
X135019038Y-95856391D01*
X135019038Y-95674600D01*
X134923583Y-95444151D01*
X134747205Y-95267773D01*
X134516756Y-95172318D01*
X134267320Y-95172318D01*
X134036871Y-95267773D01*
X133860493Y-95444151D01*
X133860372Y-95444444D01*
X133596000Y-95180073D01*
X133596000Y-94998282D01*
X133500545Y-94767833D01*
X133324167Y-94591455D01*
X133193603Y-94537374D01*
X133215000Y-94485718D01*
X133215000Y-94236282D01*
X133119545Y-94005833D01*
X132943167Y-93829455D01*
X132712718Y-93734000D01*
X132463282Y-93734000D01*
X132232833Y-93829455D01*
X132104288Y-93958000D01*
X131865689Y-93958000D01*
X131825999Y-93950105D01*
X131668757Y-93981383D01*
X131535453Y-94070453D01*
X131512969Y-94104103D01*
X130928573Y-94688500D01*
X129069418Y-94688500D01*
X129064527Y-94663911D01*
X128992254Y-94555746D01*
X128884089Y-94483473D01*
X128756500Y-94458094D01*
X127656500Y-94458094D01*
X127528911Y-94483473D01*
X127420746Y-94555746D01*
X127348473Y-94663911D01*
X127323094Y-94791500D01*
X127323094Y-95391500D01*
X127348473Y-95519089D01*
X127396856Y-95591500D01*
X127348473Y-95663911D01*
X127323094Y-95791500D01*
X127323094Y-95975170D01*
X127124718Y-95893000D01*
X126875282Y-95893000D01*
X126644833Y-95988455D01*
X126468455Y-96164833D01*
X126467837Y-96166325D01*
X126549058Y-95758000D01*
X126457709Y-95298758D01*
X126197569Y-94909431D01*
X125808242Y-94649291D01*
X125703000Y-94628357D01*
X125703000Y-93527000D01*
X142775000Y-93527000D01*
X142775000Y-94628357D01*
G04 #@! TD*
M02*
